AreaDataFile

Start Object000
    74830.000000 -34790.000000 16383.500000
    717915292
    0.000000#0.000000#270.000000
    0.000000
End Object
Start Object001
    72646.070313 -38478.128906 16383.500000
    807123463
    0.000000#0.000000#0.000000
    498.000000
End Object
Start Object002
    71135.359375 -36967.539063 16383.500000
    807123463
    0.000000#0.000000#0.000000
    498.000000
End Object
Start Object003
    71152.343750 -32599.218750 16383.500000
    807123463
    0.000000#0.000000#0.000000
    498.000000
End Object
Start Object004
    72656.484375 -31081.759766 16383.500000
    807123463
    0.000000#0.000000#0.000000
    498.000000
End Object
Start Object005
    74913.007813 -31093.839844 16383.500000
    807123463
    0.000000#0.000000#0.000000
    498.000000
End Object
Start Object006
    64469.417969 -27451.445313 16383.500000
    807123463
    0.000000#0.000000#0.000000
    474.000000
End Object
Start Object007
    72108.781250 -28204.316406 16383.500000
    807123463
    0.000000#0.000000#0.000000
    348.000000
End Object
Start Object008
    70668.031250 -29641.886719 16383.500000
    807123463
    0.000000#0.000000#0.000000
    348.000000
End Object
Start Object009
    68576.070313 -29651.072266 16383.500000
    807123463
    0.000000#0.000000#0.000000
    348.000000
End Object
Start Object010
    66472.070313 -29649.023438 16383.500000
    807123463
    0.000000#0.000000#0.000000
    348.000000
End Object
Start Object011
    51685.015625 -42467.695313 16383.500000
    807123463
    0.000000#0.000000#0.000000
    471.000000
End Object
Start Object012
    52841.417969 -42471.640625 16383.500000
    807123463
    0.000000#0.000000#0.000000
    471.000000
End Object
Start Object013
    54113.804688 -42476.535156 16383.500000
    807123463
    0.000000#0.000000#0.000000
    471.000000
End Object
Start Object014
    52194.042969 -37119.121094 16383.500000
    807123463
    0.000000#0.000000#0.000000
    343.000000
End Object
Start Object015
    52187.253906 -34997.121094 16383.500000
    807123463
    0.000000#0.000000#0.000000
    343.000000
End Object
Start Object016
    52185.605469 -32904.218750 16383.500000
    807123463
    0.000000#0.000000#0.000000
    343.000000
End Object
Start Object017
    52183.574219 -28429.539063 16383.500000
    807123463
    0.000000#0.000000#0.000000
    340.000000
End Object
Start Object018
    53051.503906 -27456.742188 16383.500000
    807123463
    0.000000#0.000000#0.000000
    474.000000
End Object
Start Object019
    54210.476563 -27452.472656 16383.500000
    807123463
    0.000000#0.000000#0.000000
    474.000000
End Object
Start Object020
    76782.578125 -27349.917969 16383.500000
    807123463
    0.000000#0.000000#0.000000
    478.000000
End Object
Start Object021
    75507.093750 -27340.863281 16383.500000
    807123463
    0.000000#0.000000#0.000000
    478.000000
End Object
Start Object022
    74350.390625 -27349.638672 16383.500000
    807123463
    0.000000#0.000000#0.000000
    478.000000
End Object
Start Object023
    64608.585938 -32780.500000 16383.500000
    807123463
    0.000000#0.000000#0.000000
    334.000000
End Object
Start Object024
    63149.941406 -31307.902344 16383.500000
    807123463
    0.000000#0.000000#0.000000
    334.000000
End Object
Start Object025
    61140.867188 -31315.781250 16383.500000
    807123463
    0.000000#0.000000#0.000000
    334.000000
End Object
Start Object026
    58937.550781 -31313.656250 16383.500000
    807123463
    0.000000#0.000000#0.000000
    334.000000
End Object
Start Object027
    57479.898438 -32761.017578 16383.500000
    807123463
    0.000000#0.000000#0.000000
    334.000000
End Object
Start Object028
    57478.558594 -34874.472656 16383.500000
    807123463
    0.000000#0.000000#0.000000
    334.000000
End Object
Start Object029
    57470.789063 -36985.136719 16383.500000
    807123463
    0.000000#0.000000#0.000000
    334.000000
End Object
Start Object030
    58929.250000 -38439.789063 16383.500000
    807123463
    0.000000#0.000000#0.000000
    334.000000
End Object
Start Object031
    63153.164063 -38447.226563 16383.500000
    807123463
    0.000000#0.000000#0.000000
    334.000000
End Object
Start Object032
    64603.250000 -36998.371094 16383.500000
    807123463
    0.000000#0.000000#0.000000
    334.000000
End Object
Start Object033
    62213.851563 -39332.031250 16383.500000
    807123463
    0.000000#0.000000#0.000000
    472.000000
End Object
Start Object034
    59813.558594 -39329.171875 16383.500000
    807123463
    0.000000#0.000000#0.000000
    472.000000
End Object
Start Object035
    65451.554688 -33662.378906 16383.500000
    807123463
    0.000000#0.000000#0.000000
    473.000000
End Object
Start Object036
    66612.796875 -33655.898438 16383.500000
    807123463
    0.000000#0.000000#0.000000
    473.000000
End Object
Start Object037
    67883.234375 -33658.191406 16383.500000
    807123463
    0.000000#0.000000#0.000000
    473.000000
End Object
Start Object038
    69049.617188 -33663.746094 16383.500000
    807123463
    0.000000#0.000000#0.000000
    473.000000
End Object
Start Object039
    70547.101563 -33664.800781 16383.500000
    807123463
    0.000000#0.000000#0.000000
    473.000000
End Object
Start Object040
    65452.933594 -36049.867188 16383.500000
    807123463
    0.000000#0.000000#0.000000
    473.000000
End Object
Start Object041
    66617.945313 -36053.796875 16383.500000
    807123463
    0.000000#0.000000#0.000000
    473.000000
End Object
Start Object042
    67893.078125 -36055.945313 16383.500000
    807123463
    0.000000#0.000000#0.000000
    473.000000
End Object
Start Object043
    69045.593750 -36050.621094 16383.500000
    807123463
    0.000000#0.000000#0.000000
    473.000000
End Object
Start Object044
    70543.093750 -36038.644531 16383.500000
    807123463
    0.000000#0.000000#0.000000
    473.000000
End Object
Start Object045
    74785.093750 -38485.792969 16383.500000
    807123463
    0.000000#0.000000#0.000000
    498.000000
End Object
Start Object046
    76690.945313 -44865.160156 16383.500000
    807123463
    0.000000#0.000000#0.000000
    473.000000
End Object
Start Object047
    75533.265625 -44861.714844 16383.500000
    807123463
    0.000000#0.000000#0.000000
    473.000000
End Object
Start Object048
    74264.148438 -44858.140625 16383.500000
    807123463
    0.000000#0.000000#0.000000
    473.000000
End Object
Start Object049
    73101.593750 -44860.492188 16383.500000
    807123463
    0.000000#0.000000#0.000000
    473.000000
End Object
Start Object050
    71596.320313 -44860.621094 16383.500000
    807123463
    0.000000#0.000000#0.000000
    473.000000
End Object
Start Object051
    70370.656250 -44859.542969 16383.500000
    807123463
    0.000000#0.000000#0.000000
    473.000000
End Object
Start Object052
    69206.687500 -44865.019531 16383.500000
    807123463
    0.000000#0.000000#0.000000
    473.000000
End Object
Start Object053
    67942.710938 -44856.210938 16383.500000
    807123463
    0.000000#0.000000#0.000000
    473.000000
End Object
Start Object054
    66783.757813 -44866.941406 16383.500000
    807123463
    0.000000#0.000000#0.000000
    473.000000
End Object
Start Object055
    65271.750000 -44852.921875 16383.500000
    807123463
    0.000000#0.000000#0.000000
    473.000000
End Object
Start Object056
    55272.933594 -42475.054688 16383.500000
    807123463
    0.000000#0.000000#0.000000
    471.000000
End Object
Start Object057
    56784.363281 -42472.917969 16383.500000
    807123463
    0.000000#0.000000#0.000000
    471.000000
End Object
Start Object058
    56781.089844 -44861.515625 16383.500000
    807123463
    0.000000#0.000000#0.000000
    471.000000
End Object
Start Object059
    55272.234375 -44863.949219 16383.500000
    807123463
    0.000000#0.000000#0.000000
    471.000000
End Object
Start Object060
    54117.777344 -44861.296875 16383.500000
    807123463
    0.000000#0.000000#0.000000
    471.000000
End Object
Start Object061
    52845.054688 -44863.351563 16383.500000
    807123463
    0.000000#0.000000#0.000000
    471.000000
End Object
Start Object062
    51685.648438 -44859.023438 16383.500000
    807123463
    0.000000#0.000000#0.000000
    471.000000
End Object
Start Object063
    63157.039063 -47128.097656 16383.500000
    807123463
    0.000000#0.000000#0.000000
    339.000000
End Object
Start Object064
    61065.910156 -47115.500000 16383.500000
    807123463
    0.000000#0.000000#0.000000
    339.000000
End Object
Start Object065
    58963.527344 -47115.023438 16383.500000
    807123463
    0.000000#0.000000#0.000000
    339.000000
End Object
Start Object066
    57529.113281 -45664.367188 16383.500000
    807123463
    0.000000#0.000000#0.000000
    339.000000
End Object
Start Object067
    57532.097656 -41476.953125 16383.500000
    807123463
    0.000000#0.000000#0.000000
    339.000000
End Object
Start Object068
    58972.625000 -40033.542969 16383.500000
    807123463
    0.000000#0.000000#0.000000
    339.000000
End Object
Start Object069
    63163.808594 -40034.183594 16383.500000
    807123463
    0.000000#0.000000#0.000000
    339.000000
End Object
Start Object070
    64610.503906 -41480.054688 16383.500000
    807123463
    0.000000#0.000000#0.000000
    339.000000
End Object
Start Object071
    64604.433594 -45672.828125 16383.500000
    807123463
    0.000000#0.000000#0.000000
    339.000000
End Object
Start Object072
    65280.152344 -42472.097656 16383.500000
    807123463
    0.000000#0.000000#0.000000
    473.000000
End Object
Start Object073
    66785.312500 -42465.941406 16383.500000
    807123463
    0.000000#0.000000#0.000000
    473.000000
End Object
Start Object074
    72864.375000 -27328.003906 16383.500000
    807123463
    0.000000#0.000000#0.000000
    478.000000
End Object
Start Object075
    65040.582031 -28201.468750 16383.500000
    807123463
    0.000000#0.000000#0.000000
    348.000000
End Object
Start Object076
    55476.000000 -27455.572266 16383.500000
    807123463
    0.000000#0.000000#0.000000
    474.000000
End Object
Start Object077
    56636.871094 -27460.144531 16383.500000
    807123463
    0.000000#0.000000#0.000000
    474.000000
End Object
Start Object078
    58141.003906 -27462.546875 16383.500000
    807123463
    0.000000#0.000000#0.000000
    474.000000
End Object
Start Object079
    76693.968750 -42469.644531 16383.500000
    807123463
    0.000000#0.000000#0.000000
    473.000000
End Object
Start Object080
    75536.429688 -42469.570313 16383.500000
    807123463
    0.000000#0.000000#0.000000
    473.000000
End Object
Start Object081
    74259.742188 -42467.628906 16383.500000
    807123463
    0.000000#0.000000#0.000000
    473.000000
End Object
Start Object082
    73107.281250 -42468.636719 16383.500000
    807123463
    0.000000#0.000000#0.000000
    473.000000
End Object
Start Object083
    71594.664063 -42466.871094 16383.500000
    807123463
    0.000000#0.000000#0.000000
    473.000000
End Object
Start Object084
    70364.507813 -42466.027344 16383.500000
    807123463
    0.000000#0.000000#0.000000
    473.000000
End Object
Start Object085
    69216.531250 -42465.816406 16383.500000
    807123463
    0.000000#0.000000#0.000000
    473.000000
End Object
Start Object086
    67944.648438 -42466.828125 16383.500000
    807123463
    0.000000#0.000000#0.000000
    473.000000
End Object
Start Object087
    62961.980469 -27453.564453 16383.500000
    807123463
    0.000000#0.000000#0.000000
    474.000000
End Object
Start Object088
    61812.414063 -27454.210938 16383.500000
    807123463
    0.000000#0.000000#0.000000
    474.000000
End Object
Start Object089
    60537.945313 -27455.710938 16383.500000
    807123463
    0.000000#0.000000#0.000000
    474.000000
End Object
Start Object090
    59376.890625 -27456.531250 16383.500000
    807123463
    0.000000#0.000000#0.000000
    474.000000
End Object
Start Object091
    61040.000000 -34870.000000 16383.500000
    1276175125
    0.000000#0.000000#90.000000
    0.000000
End Object
Start Object092
    61020.000000 -39230.000000 16383.500000
    2847936845
    0.000000#0.000000#0.000000
    0.000000
End Object
Start Object093
    74290.000000 -43670.000000 16383.500000
    3453634549
    0.000000#0.000000#270.000000
    0.000000
End Object
Start Object094
    67970.000000 -43670.000000 16383.500000
    3453634549
    0.000000#0.000000#270.000000
    0.000000
End Object
Start Object095
    54090.000000 -43660.000000 16383.500000
    3453634549
    0.000000#0.000000#90.000000
    0.000000
End Object
Start Object096
    67860.000000 -34850.000000 16383.500000
    3453634549
    0.000000#0.000000#90.000000
    0.000000
End Object
Start Object097
    55450.000000 -26260.000000 16383.500000
    3453634549
    0.000000#0.000000#90.000000
    0.000000
End Object
Start Object098
    61780.000000 -26250.000000 16383.500000
    3453634549
    0.000000#0.000000#90.000000
    0.000000
End Object
Start Object099
    75540.000000 -26160.000000 16383.500000
    3453634549
    0.000000#0.000000#270.000000
    0.000000
End Object
Start Object100
    71922.054688 -27312.638672 16383.500000
    3982077190
    0.000000#0.000000#0.000000
    1525.000000
End Object
Start Object101
    73585.179688 -31294.740234 16383.500000
    3982077190
    0.000000#0.000000#0.000000
    1719.000000
End Object
Start Object102
    76094.992188 -31285.730469 16383.500000
    3982077190
    0.000000#0.000000#0.000000
    1719.000000
End Object
Start Object103
    76093.539063 -38301.500000 16383.500000
    3982077190
    0.000000#0.000000#0.000000
    1719.000000
End Object
Start Object104
    73590.468750 -38294.292969 16383.500000
    3982077190
    0.000000#0.000000#0.000000
    1719.000000
End Object
Start Object105
    71345.593750 -36052.035156 16383.500000
    3982077190
    0.000000#0.000000#0.000000
    1719.000000
End Object
Start Object106
    71340.398438 -33516.660156 16383.500000
    3982077190
    0.000000#0.000000#0.000000
    1719.000000
End Object
Start Object107
    59845.554688 -31519.939453 16383.500000
    3982077190
    0.000000#0.000000#0.000000
    1525.000000
End Object
Start Object108
    57672.070313 -33667.273438 16383.500000
    3982077190
    0.000000#0.000000#0.000000
    1525.000000
End Object
Start Object109
    57671.941406 -36085.289063 16383.500000
    3982077190
    0.000000#0.000000#0.000000
    1525.000000
End Object
Start Object110
    59855.000000 -46910.230469 16383.500000
    3982077190
    0.000000#0.000000#0.000000
    1525.000000
End Object
Start Object111
    62266.609375 -46923.621094 16383.500000
    3982077190
    0.000000#0.000000#0.000000
    1525.000000
End Object
Start Object112
    64408.480469 -44771.230469 16383.500000
    3982077190
    0.000000#0.000000#0.000000
    1525.000000
End Object
Start Object113
    64419.144531 -42374.656250 16383.500000
    3982077190
    0.000000#0.000000#0.000000
    1525.000000
End Object
Start Object114
    62273.027344 -40233.441406 16383.500000
    3982077190
    0.000000#0.000000#0.000000
    1525.000000
End Object
Start Object115
    59870.421875 -40229.355469 16383.500000
    3982077190
    0.000000#0.000000#0.000000
    1525.000000
End Object
Start Object116
    57716.941406 -42374.527344 16383.500000
    3982077190
    0.000000#0.000000#0.000000
    1525.000000
End Object
Start Object117
    57725.738281 -44777.031250 16383.500000
    3982077190
    0.000000#0.000000#0.000000
    1525.000000
End Object
Start Object118
    52006.257813 -33788.765625 16383.500000
    3982077190
    0.000000#0.000000#0.000000
    1521.000000
End Object
Start Object119
    52002.175781 -36211.773438 16383.500000
    3982077190
    0.000000#0.000000#0.000000
    1521.000000
End Object
Start Object120
    51972.277344 -27509.841797 16383.500000
    3982077190
    0.000000#0.000000#0.000000
    1521.000000
End Object
Start Object121
    62248.234375 -31515.361328 16383.500000
    3982077190
    0.000000#0.000000#0.000000
    1525.000000
End Object
Start Object122
    64426.414063 -33657.957031 16383.500000
    3982077190
    0.000000#0.000000#0.000000
    1525.000000
End Object
Start Object123
    64418.882813 -36084.078125 16383.500000
    3982077190
    0.000000#0.000000#0.000000
    1525.000000
End Object
Start Object124
    62248.621094 -38245.406250 16383.500000
    3982077190
    0.000000#0.000000#0.000000
    1525.000000
End Object
Start Object125
    59824.160156 -38248.796875 16383.500000
    3982077190
    0.000000#0.000000#0.000000
    1525.000000
End Object
Start Object126
    65235.386719 -27310.105469 16383.500000
    3982077190
    0.000000#0.000000#0.000000
    1525.000000
End Object
Start Object127
    67369.421875 -29450.386719 16383.500000
    3982077190
    0.000000#0.000000#0.000000
    1525.000000
End Object
Start Object128
    69771.414063 -29457.728516 16383.500000
    3982077190
    0.000000#0.000000#0.000000
    1525.000000
End Object
Start Object129
    68570.000000 -26110.000000 16383.500000
    4180790606
    0.000000#0.000000#180.000000
    0.000000
End Object
Start Object130
    61060.000000 -43580.000000 16383.500000
    4180790606
    0.000000#0.000000#180.000000
    0.000000
End Object

ObjectCount 131
