AreaDataFile

Start Object000
    73030.000000 -130150.000000 16383.500000
    717915292
    0.000000#0.000000#90.000000
    0.000000
End Object
Start Object001
    58148.132813 -133563.140625 16383.500000
    807123463
    0.000000#0.000000#0.000000
    356.000000
End Object
Start Object002
    56693.531250 -132114.890625 16383.500000
    807123463
    0.000000#0.000000#0.000000
    356.000000
End Object
Start Object003
    55852.523438 -128907.679688 16383.500000
    807123463
    0.000000#0.000000#0.000000
    476.000000
End Object
Start Object004
    54691.253906 -128907.554688 16383.500000
    807123463
    0.000000#0.000000#0.000000
    476.000000
End Object
Start Object005
    53421.695313 -128905.820313 16383.500000
    807123463
    0.000000#0.000000#0.000000
    476.000000
End Object
Start Object006
    52266.054688 -128897.562500 16383.500000
    807123463
    0.000000#0.000000#0.000000
    476.000000
End Object
Start Object007
    52261.164063 -131295.765625 16383.500000
    807123463
    0.000000#0.000000#0.000000
    476.000000
End Object
Start Object008
    53418.832031 -131288.765625 16383.500000
    807123463
    0.000000#0.000000#0.000000
    476.000000
End Object
Start Object009
    54689.667969 -131296.921875 16383.500000
    807123463
    0.000000#0.000000#0.000000
    476.000000
End Object
Start Object010
    55848.722656 -131286.281250 16383.500000
    807123463
    0.000000#0.000000#0.000000
    476.000000
End Object
Start Object011
    75208.671875 -133842.203125 16383.500000
    807123463
    0.000000#0.000000#0.000000
    497.000000
End Object
Start Object012
    72951.453125 -133840.296875 16383.500000
    807123463
    0.000000#0.000000#0.000000
    497.000000
End Object
Start Object013
    70824.328125 -133842.703125 16383.500000
    807123463
    0.000000#0.000000#0.000000
    497.000000
End Object
Start Object014
    69313.375000 -132343.531250 16383.500000
    807123463
    0.000000#0.000000#0.000000
    497.000000
End Object
Start Object015
    69323.281250 -130103.046875 16383.500000
    807123463
    0.000000#0.000000#0.000000
    497.000000
End Object
Start Object016
    76719.765625 -132345.671875 16383.500000
    807123463
    0.000000#0.000000#0.000000
    497.000000
End Object
Start Object017
    63809.968750 -130003.898438 16383.500000
    807123463
    0.000000#0.000000#0.000000
    356.000000
End Object
Start Object018
    63814.460938 -132121.703125 16383.500000
    807123463
    0.000000#0.000000#0.000000
    356.000000
End Object
Start Object019
    62353.214844 -133569.921875 16383.500000
    807123463
    0.000000#0.000000#0.000000
    356.000000
End Object
Start Object020
    60158.230469 -133563.187500 16383.500000
    807123463
    0.000000#0.000000#0.000000
    356.000000
End Object
Start Object021
    60260.000000 -130010.000000 16383.500000
    1276175125
    0.000000#0.000000#270.000000
    0.000000
End Object
Start Object022
    53450.000000 -130100.000000 16383.500000
    3453634549
    0.000000#0.000000#270.000000
    0.000000
End Object
Start Object023
    56898.054688 -128800.554688 16383.500000
    3982077190
    0.000000#0.000000#0.000000
    1532.000000
End Object
Start Object024
    56893.363281 -131216.609375 16383.500000
    3982077190
    0.000000#0.000000#0.000000
    1532.000000
End Object
Start Object025
    59046.500000 -133380.250000 16383.500000
    3982077190
    0.000000#0.000000#0.000000
    1532.000000
End Object
Start Object026
    61454.347656 -133391.843750 16383.500000
    3982077190
    0.000000#0.000000#0.000000
    1532.000000
End Object
Start Object027
    63633.531250 -131209.703125 16383.500000
    3982077190
    0.000000#0.000000#0.000000
    1532.000000
End Object
Start Object028
    63619.773438 -128805.054688 16383.500000
    3982077190
    0.000000#0.000000#0.000000
    1532.000000
End Object
Start Object029
    76484.671875 -128914.656250 16383.500000
    3982077190
    0.000000#0.000000#0.000000
    1735.000000
End Object
Start Object030
    69519.835938 -128875.421875 16383.500000
    3982077190
    0.000000#0.000000#0.000000
    1735.000000
End Object
Start Object031
    69510.617188 -131406.437500 16383.500000
    3982077190
    0.000000#0.000000#0.000000
    1735.000000
End Object
Start Object032
    71756.093750 -133660.531250 16383.500000
    3982077190
    0.000000#0.000000#0.000000
    1735.000000
End Object
Start Object033
    74272.671875 -133657.484375 16383.500000
    3982077190
    0.000000#0.000000#0.000000
    1735.000000
End Object
Start Object034
    76509.171875 -131410.656250 16383.500000
    3982077190
    0.000000#0.000000#0.000000
    1735.000000
End Object

ObjectCount 35
