AreaDataFile

Start Object000
    7051.968750 -15175.142578 16383.500000
    807123463
    0.000000#0.000000#0.000000
    499.000000
End Object
Start Object001
    6116.821289 -15176.566406 16383.500000
    807123463
    0.000000#0.000000#0.000000
    499.000000
End Object
Start Object002
    6113.410645 -13263.186523 16383.500000
    807123463
    0.000000#0.000000#0.000000
    499.000000
End Object
Start Object003
    7043.064453 -13261.340820 16383.500000
    807123463
    0.000000#0.000000#0.000000
    499.000000
End Object
Start Object004
    7724.830078 -12464.418945 16383.500000
    807123463
    0.000000#0.000000#0.000000
    499.000000
End Object
Start Object005
    7729.099121 -10742.733398 16383.500000
    807123463
    0.000000#0.000000#0.000000
    499.000000
End Object
Start Object006
    9017.469727 -9467.437500 16383.500000
    807123463
    0.000000#0.000000#0.000000
    499.000000
End Object
Start Object007
    10744.253906 -9461.339844 16383.500000
    807123463
    0.000000#0.000000#0.000000
    499.000000
End Object
Start Object008
    12503.097656 -9471.529297 16383.500000
    807123463
    0.000000#0.000000#0.000000
    499.000000
End Object
Start Object009
    14247.125977 -9467.727539 16383.500000
    807123463
    0.000000#0.000000#0.000000
    499.000000
End Object
Start Object010
    15960.762695 -9466.442383 16383.500000
    807123463
    0.000000#0.000000#0.000000
    499.000000
End Object
Start Object011
    14249.240234 -18973.007813 16383.500000
    807123463
    0.000000#0.000000#0.000000
    499.000000
End Object
Start Object012
    12493.903320 -18969.583984 16383.500000
    807123463
    0.000000#0.000000#0.000000
    499.000000
End Object
Start Object013
    10741.965820 -18977.603516 16383.500000
    807123463
    0.000000#0.000000#0.000000
    499.000000
End Object
Start Object014
    8930.122070 -18973.750000 16383.500000
    807123463
    0.000000#0.000000#0.000000
    499.000000
End Object
Start Object015
    7722.943359 -15968.161133 16383.500000
    807123463
    0.000000#0.000000#0.000000
    499.000000
End Object
Start Object016
    15964.496094 -18979.476563 16383.500000
    807123463
    0.000000#0.000000#0.000000
    499.000000
End Object
Start Object017
    17252.455078 -17690.199219 16383.500000
    807123463
    0.000000#0.000000#0.000000
    499.000000
End Object
Start Object018
    17254.134766 -15975.050781 16383.500000
    807123463
    0.000000#0.000000#0.000000
    499.000000
End Object
Start Object019
    17234.693359 -14223.421875 16383.500000
    807123463
    0.000000#0.000000#0.000000
    499.000000
End Object
Start Object020
    17257.156250 -12466.200195 16383.500000
    807123463
    0.000000#0.000000#0.000000
    499.000000
End Object
Start Object021
    17256.269531 -10738.251953 16383.500000
    807123463
    0.000000#0.000000#0.000000
    499.000000
End Object
Start Object022
    12499.138672 -14219.012695 16383.500000
    1411326424
    0.000000#0.000000#0.000000
    0.000000
End Object
Start Object023
    12503.399414 -14272.098633 16383.500000
    2400553576
    0.000000#0.000000#0.000000
    499.000000
End Object
Start Object024
    7879.889160 -11495.250977 16383.500000
    3982077190
    0.000000#0.000000#0.000000
    1487.000000
End Object
Start Object025
    7879.235352 -13219.114258 16383.500000
    3982077190
    0.000000#0.000000#0.000000
    1487.000000
End Object
Start Object026
    7882.749023 -15218.665039 16383.500000
    3982077190
    0.000000#0.000000#0.000000
    1487.000000
End Object
Start Object027
    7886.294922 -16863.189453 16383.500000
    3982077190
    0.000000#0.000000#0.000000
    1487.000000
End Object
Start Object028
    9717.447266 -18805.240234 16383.500000
    3982077190
    0.000000#0.000000#0.000000
    1487.000000
End Object
Start Object029
    11447.845703 -18819.128906 16383.500000
    3982077190
    0.000000#0.000000#0.000000
    1487.000000
End Object
Start Object030
    13497.427734 -18805.029297 16383.500000
    3982077190
    0.000000#0.000000#0.000000
    1487.000000
End Object
Start Object031
    15223.114258 -18803.736328 16383.500000
    3982077190
    0.000000#0.000000#0.000000
    1487.000000
End Object
Start Object032
    17098.281250 -16953.335938 16383.500000
    3982077190
    0.000000#0.000000#0.000000
    1487.000000
End Object
Start Object033
    17092.316406 -15221.914063 16383.500000
    3982077190
    0.000000#0.000000#0.000000
    1487.000000
End Object
Start Object034
    17094.189453 -13215.308594 16383.500000
    3982077190
    0.000000#0.000000#0.000000
    1487.000000
End Object
Start Object035
    17094.746094 -11487.895508 16383.500000
    3982077190
    0.000000#0.000000#0.000000
    1487.000000
End Object
Start Object036
    15216.000000 -9627.711914 16383.500000
    3982077190
    0.000000#0.000000#0.000000
    1487.000000
End Object
Start Object037
    13486.811523 -9640.061523 16383.500000
    3982077190
    0.000000#0.000000#0.000000
    1487.000000
End Object
Start Object038
    11486.119141 -9624.537109 16383.500000
    3982077190
    0.000000#0.000000#0.000000
    1487.000000
End Object
Start Object039
    9753.488281 -9631.194336 16383.500000
    3982077190
    0.000000#0.000000#0.000000
    1487.000000
End Object

ObjectCount 40
