AreaDataFile

Start Object000
    51510.000000 -140730.000000 16383.500000
    717915292
    0.000000#0.000000#90.000000
    0.000000
End Object
Start Object001
    76175.007813 -141835.171875 16383.500000
    807123463
    0.000000#0.000000#0.000000
    481.000000
End Object
Start Object002
    74909.023438 -141836.875000 16383.500000
    807123463
    0.000000#0.000000#0.000000
    481.000000
End Object
Start Object003
    73736.679688 -141843.421875 16383.500000
    807123463
    0.000000#0.000000#0.000000
    481.000000
End Object
Start Object004
    72446.828125 -141844.468750 16383.500000
    807123463
    0.000000#0.000000#0.000000
    481.000000
End Object
Start Object005
    71071.640625 -141849.187500 16383.500000
    807123463
    0.000000#0.000000#0.000000
    481.000000
End Object
Start Object006
    70940.039063 -141847.093750 16383.500000
    807123463
    0.000000#0.000000#0.000000
    481.000000
End Object
Start Object007
    69562.937500 -141853.984375 16383.500000
    807123463
    0.000000#0.000000#0.000000
    481.000000
End Object
Start Object008
    69556.687500 -139459.671875 16383.500000
    807123463
    0.000000#0.000000#0.000000
    481.000000
End Object
Start Object009
    60984.750000 -139597.234375 16383.500000
    807123463
    0.000000#0.000000#0.000000
    481.000000
End Object
Start Object010
    59830.996094 -139606.921875 16383.500000
    807123463
    0.000000#0.000000#0.000000
    481.000000
End Object
Start Object011
    58559.906250 -139601.421875 16383.500000
    807123463
    0.000000#0.000000#0.000000
    481.000000
End Object
Start Object012
    57403.835938 -139599.156250 16383.500000
    807123463
    0.000000#0.000000#0.000000
    481.000000
End Object
Start Object013
    55902.101563 -139600.828125 16383.500000
    807123463
    0.000000#0.000000#0.000000
    481.000000
End Object
Start Object014
    55902.902344 -141981.500000 16383.500000
    807123463
    0.000000#0.000000#0.000000
    481.000000
End Object
Start Object015
    57404.988281 -141990.031250 16383.500000
    807123463
    0.000000#0.000000#0.000000
    481.000000
End Object
Start Object016
    76176.523438 -139449.718750 16383.500000
    807123463
    0.000000#0.000000#0.000000
    481.000000
End Object
Start Object017
    74908.726563 -139453.906250 16383.500000
    807123463
    0.000000#0.000000#0.000000
    481.000000
End Object
Start Object018
    73746.523438 -139447.937500 16383.500000
    807123463
    0.000000#0.000000#0.000000
    481.000000
End Object
Start Object019
    72444.593750 -139453.453125 16383.500000
    807123463
    0.000000#0.000000#0.000000
    481.000000
End Object
Start Object020
    56062.101563 -129393.101563 16383.500000
    807123463
    0.000000#0.000000#0.000000
    481.000000
End Object
Start Object021
    55291.691406 -129401.703125 16383.500000
    807123463
    0.000000#0.000000#0.000000
    481.000000
End Object
Start Object022
    61159.398438 -131774.453125 16383.500000
    807123463
    0.000000#0.000000#0.000000
    481.000000
End Object
Start Object023
    59656.218750 -131789.000000 16383.500000
    807123463
    0.000000#0.000000#0.000000
    481.000000
End Object
Start Object024
    58504.007813 -131783.171875 16383.500000
    807123463
    0.000000#0.000000#0.000000
    481.000000
End Object
Start Object025
    57222.707031 -131780.109375 16383.500000
    807123463
    0.000000#0.000000#0.000000
    481.000000
End Object
Start Object026
    56065.375000 -131775.656250 16383.500000
    807123463
    0.000000#0.000000#0.000000
    481.000000
End Object
Start Object027
    55298.957031 -131781.609375 16383.500000
    807123463
    0.000000#0.000000#0.000000
    481.000000
End Object
Start Object028
    70940.554688 -139455.609375 16383.500000
    807123463
    0.000000#0.000000#0.000000
    481.000000
End Object
Start Object029
    71061.570313 -139455.203125 16383.500000
    807123463
    0.000000#0.000000#0.000000
    481.000000
End Object
Start Object030
    57225.277344 -129397.765625 16383.500000
    807123463
    0.000000#0.000000#0.000000
    481.000000
End Object
Start Object031
    58495.667969 -129397.984375 16383.500000
    807123463
    0.000000#0.000000#0.000000
    481.000000
End Object
Start Object032
    59655.195313 -129393.796875 16383.500000
    807123463
    0.000000#0.000000#0.000000
    481.000000
End Object
Start Object033
    61158.937500 -129394.109375 16383.500000
    807123463
    0.000000#0.000000#0.000000
    481.000000
End Object
Start Object034
    70996.195313 -131773.531250 16383.500000
    807123463
    0.000000#0.000000#0.000000
    481.000000
End Object
Start Object035
    69838.335938 -131771.640625 16383.500000
    807123463
    0.000000#0.000000#0.000000
    481.000000
End Object
Start Object036
    58570.308594 -141995.062500 16383.500000
    807123463
    0.000000#0.000000#0.000000
    481.000000
End Object
Start Object037
    59837.257813 -141987.375000 16383.500000
    807123463
    0.000000#0.000000#0.000000
    481.000000
End Object
Start Object038
    60997.125000 -141987.328125 16383.500000
    807123463
    0.000000#0.000000#0.000000
    481.000000
End Object
Start Object039
    64245.230469 -134824.281250 16383.500000
    807123463
    0.000000#0.000000#0.000000
    481.000000
End Object
Start Object040
    64249.910156 -136336.203125 16383.500000
    807123463
    0.000000#0.000000#0.000000
    481.000000
End Object
Start Object041
    66633.078125 -136330.484375 16383.500000
    807123463
    0.000000#0.000000#0.000000
    481.000000
End Object
Start Object042
    66640.945313 -134820.218750 16383.500000
    807123463
    0.000000#0.000000#0.000000
    481.000000
End Object
Start Object043
    69843.242188 -129387.414063 16383.500000
    807123463
    0.000000#0.000000#0.000000
    481.000000
End Object
Start Object044
    70999.171875 -129386.992188 16383.500000
    807123463
    0.000000#0.000000#0.000000
    481.000000
End Object
Start Object045
    72260.687500 -129379.609375 16383.500000
    807123463
    0.000000#0.000000#0.000000
    481.000000
End Object
Start Object046
    73414.875000 -129386.906250 16383.500000
    807123463
    0.000000#0.000000#0.000000
    481.000000
End Object
Start Object047
    74929.062500 -129382.710938 16383.500000
    807123463
    0.000000#0.000000#0.000000
    481.000000
End Object
Start Object048
    76139.460938 -129379.125000 16383.500000
    807123463
    0.000000#0.000000#0.000000
    481.000000
End Object
Start Object049
    76146.898438 -131761.671875 16383.500000
    807123463
    0.000000#0.000000#0.000000
    481.000000
End Object
Start Object050
    74935.046875 -131784.203125 16383.500000
    807123463
    0.000000#0.000000#0.000000
    481.000000
End Object
Start Object051
    73426.515625 -131774.984375 16383.500000
    807123463
    0.000000#0.000000#0.000000
    481.000000
End Object
Start Object052
    72258.664063 -131770.250000 16383.500000
    807123463
    0.000000#0.000000#0.000000
    481.000000
End Object
Start Object053
    68963.734375 -142794.734375 16383.500000
    807123463
    0.000000#0.000000#270.000000
    339.000000
End Object
Start Object054
    67504.445313 -144234.968750 16383.500000
    807123463
    0.000000#0.000000#270.000000
    339.000000
End Object
Start Object055
    65417.546875 -144238.093750 16383.500000
    807123463
    0.000000#0.000000#270.000000
    339.000000
End Object
Start Object056
    63313.304688 -144235.984375 16383.500000
    807123463
    0.000000#0.000000#270.000000
    339.000000
End Object
Start Object057
    61872.437500 -142785.406250 16383.500000
    807123463
    0.000000#0.000000#270.000000
    339.000000
End Object
Start Object058
    61885.156250 -138598.015625 16383.500000
    807123463
    0.000000#0.000000#270.000000
    339.000000
End Object
Start Object059
    63327.371094 -137157.828125 16383.500000
    807123463
    0.000000#0.000000#270.000000
    339.000000
End Object
Start Object060
    67519.648438 -137163.296875 16383.500000
    807123463
    0.000000#0.000000#270.000000
    339.000000
End Object
Start Object061
    68960.648438 -138602.328125 16383.500000
    807123463
    0.000000#0.000000#270.000000
    339.000000
End Object
Start Object062
    68909.132813 -132719.078125 16383.500000
    807123463
    0.000000#0.000000#270.000000
    339.000000
End Object
Start Object063
    67465.296875 -134152.484375 16383.500000
    807123463
    0.000000#0.000000#270.000000
    339.000000
End Object
Start Object064
    63268.472656 -134153.531250 16383.500000
    807123463
    0.000000#0.000000#270.000000
    339.000000
End Object
Start Object065
    61838.398438 -132700.921875 16383.500000
    807123463
    0.000000#0.000000#270.000000
    339.000000
End Object
Start Object066
    61835.195313 -128512.304688 16383.500000
    807123463
    0.000000#0.000000#270.000000
    339.000000
End Object
Start Object067
    68907.515625 -128518.078125 16383.500000
    807123463
    0.000000#0.000000#270.000000
    339.000000
End Object
Start Object068
    54479.078125 -128401.117188 16383.500000
    807123463
    0.000000#0.000000#270.000000
    339.000000
End Object
Start Object069
    54485.992188 -132610.562500 16383.500000
    807123463
    0.000000#0.000000#270.000000
    339.000000
End Object
Start Object070
    53020.324219 -134073.421875 16383.500000
    807123463
    0.000000#0.000000#270.000000
    339.000000
End Object
Start Object071
    51424.453125 -144431.937500 16383.500000
    807123463
    0.000000#0.000000#270.000000
    495.000000
End Object
Start Object072
    53685.843750 -144436.359375 16383.500000
    807123463
    0.000000#0.000000#270.000000
    495.000000
End Object
Start Object073
    55196.023438 -142931.046875 16383.500000
    807123463
    0.000000#0.000000#270.000000
    495.000000
End Object
Start Object074
    55202.839844 -138543.437500 16383.500000
    807123463
    0.000000#0.000000#270.000000
    495.000000
End Object
Start Object075
    53693.406250 -137031.625000 16383.500000
    807123463
    0.000000#0.000000#270.000000
    495.000000
End Object
Start Object076
    51554.640625 -137038.078125 16383.500000
    807123463
    0.000000#0.000000#270.000000
    495.000000
End Object
Start Object077
    55190.000000 -130580.000000 16383.500000
    2847936845
    0.000000#0.000000#90.000000
    0.000000
End Object
Start Object078
    65450.000000 -136430.000000 16383.500000
    2847936845
    0.000000#0.000000#180.000000
    0.000000
End Object
Start Object079
    70340.000000 -140660.000000 16383.500000
    3322686878
    0.000000#0.000000#270.000000
    0.000000
End Object
Start Object080
    71720.000000 -140660.000000 16383.500000
    3322686878
    0.000000#0.000000#270.000000
    0.000000
End Object
Start Object081
    65440.000000 -135610.000000 16383.500000
    3322686878
    0.000000#0.000000#180.000000
    0.000000
End Object
Start Object082
    72240.000000 -130570.000000 16383.500000
    3453634549
    0.000000#0.000000#90.000000
    0.000000
End Object
Start Object083
    58470.000000 -130580.000000 16383.500000
    3453634549
    0.000000#0.000000#90.000000
    0.000000
End Object
Start Object084
    76150.000000 -140640.000000 16383.500000
    3453634549
    0.000000#0.000000#90.000000
    0.000000
End Object
Start Object085
    58590.000000 -140800.000000 16383.500000
    3453634549
    0.000000#0.000000#270.000000
    0.000000
End Object
Start Object086
    68724.703125 -131817.437500 16383.500000
    3982077190
    0.000000#0.000000#0.000000
    1517.000000
End Object
Start Object087
    68724.773438 -129420.429688 16383.500000
    3982077190
    0.000000#0.000000#0.000000
    1517.000000
End Object
Start Object088
    62036.804688 -129408.601563 16383.500000
    3982077190
    0.000000#0.000000#0.000000
    1517.000000
End Object
Start Object089
    62021.859375 -131801.937500 16383.500000
    3982077190
    0.000000#0.000000#0.000000
    1517.000000
End Object
Start Object090
    66578.890625 -133955.734375 16383.500000
    3982077190
    0.000000#0.000000#0.000000
    1517.000000
End Object
Start Object091
    64174.644531 -133954.515625 16383.500000
    3982077190
    0.000000#0.000000#0.000000
    1517.000000
End Object
Start Object092
    66621.382813 -137356.656250 16383.500000
    3982077190
    0.000000#0.000000#0.000000
    1517.000000
End Object
Start Object093
    64221.996094 -137349.453125 16383.500000
    3982077190
    0.000000#0.000000#0.000000
    1517.000000
End Object
Start Object094
    62092.972656 -139497.484375 16383.500000
    3982077190
    0.000000#0.000000#0.000000
    1517.000000
End Object
Start Object095
    62068.753906 -141894.046875 16383.500000
    3982077190
    0.000000#0.000000#0.000000
    1517.000000
End Object
Start Object096
    64218.066406 -144027.125000 16383.500000
    3982077190
    0.000000#0.000000#0.000000
    1517.000000
End Object
Start Object097
    66619.296875 -144032.187500 16383.500000
    3982077190
    0.000000#0.000000#0.000000
    1517.000000
End Object
Start Object098
    68767.140625 -141896.187500 16383.500000
    3982077190
    0.000000#0.000000#0.000000
    1517.000000
End Object
Start Object099
    68766.132813 -139504.140625 16383.500000
    3982077190
    0.000000#0.000000#0.000000
    1517.000000
End Object
Start Object100
    52747.527344 -137232.078125 16383.500000
    3982077190
    0.000000#0.000000#0.000000
    1727.000000
End Object
Start Object101
    52748.917969 -144218.906250 16383.500000
    3982077190
    0.000000#0.000000#0.000000
    1727.000000
End Object
Start Object102
    54995.261719 -141976.140625 16383.500000
    3982077190
    0.000000#0.000000#0.000000
    1727.000000
End Object
Start Object103
    54995.234375 -139470.375000 16383.500000
    3982077190
    0.000000#0.000000#0.000000
    1727.000000
End Object
Start Object104
    52131.328125 -133879.890625 16383.500000
    3982077190
    0.000000#0.000000#0.000000
    1520.000000
End Object
Start Object105
    54277.906250 -131719.984375 16383.500000
    3982077190
    0.000000#0.000000#0.000000
    1520.000000
End Object
Start Object106
    54263.683594 -129306.359375 16383.500000
    3982077190
    0.000000#0.000000#0.000000
    1520.000000
End Object
Start Object107
    65410.000000 -140700.000000 16383.500000
    4180790606
    0.000000#0.000000#180.000000
    0.000000
End Object
Start Object108
    65380.000000 -130610.000000 16383.500000
    4180790606
    0.000000#0.000000#0.000000
    0.000000
End Object

ObjectCount 109
