AreaDataFile

Start Object000
    89648.921875 -67142.375000 16383.500000
    807123463
    0.000000#0.000000#270.000000
    343.000000
End Object
Start Object001
    88204.242188 -65689.250000 16383.500000
    807123463
    0.000000#0.000000#270.000000
    343.000000
End Object
Start Object002
    79457.296875 -72170.710938 16383.500000
    807123463
    0.000000#0.000000#270.000000
    343.000000
End Object
Start Object003
    79459.750000 -74281.062500 16383.500000
    807123463
    0.000000#0.000000#270.000000
    343.000000
End Object
Start Object004
    80914.523438 -75738.445313 16383.500000
    807123463
    0.000000#0.000000#270.000000
    343.000000
End Object
Start Object005
    85126.421875 -75743.523438 16383.500000
    807123463
    0.000000#0.000000#270.000000
    343.000000
End Object
Start Object006
    86582.625000 -74287.414063 16383.500000
    807123463
    0.000000#0.000000#270.000000
    343.000000
End Object
Start Object007
    86592.398438 -70070.335938 16383.500000
    807123463
    0.000000#0.000000#270.000000
    343.000000
End Object
Start Object008
    95885.679688 -71024.476563 16383.500000
    807123463
    0.000000#0.000000#0.000000
    481.000000
End Object
Start Object009
    96184.062500 -71034.984375 16383.500000
    807123463
    0.000000#0.000000#0.000000
    481.000000
End Object
Start Object010
    79466.953125 -70058.898438 16383.500000
    807123463
    0.000000#0.000000#270.000000
    343.000000
End Object
Start Object011
    101824.578125 -59935.773438 16383.500000
    807123463
    0.000000#0.000000#270.000000
    343.000000
End Object
Start Object012
    99732.882813 -59934.878906 16383.500000
    807123463
    0.000000#0.000000#270.000000
    343.000000
End Object
Start Object013
    97673.859375 -71050.882813 16383.500000
    807123463
    0.000000#0.000000#0.000000
    481.000000
End Object
Start Object014
    83678.781250 -56046.269531 16383.500000
    807123463
    0.000000#0.000000#0.000000
    481.000000
End Object
Start Object015
    84947.617188 -56049.742188 16383.500000
    807123463
    0.000000#0.000000#0.000000
    481.000000
End Object
Start Object016
    86105.679688 -56054.648438 16383.500000
    807123463
    0.000000#0.000000#0.000000
    481.000000
End Object
Start Object017
    82515.250000 -56046.265625 16383.500000
    807123463
    0.000000#0.000000#0.000000
    481.000000
End Object
Start Object018
    82509.476563 -53659.195313 16383.500000
    807123463
    0.000000#0.000000#0.000000
    481.000000
End Object
Start Object019
    81821.398438 -76562.070313 16383.500000
    807123463
    0.000000#0.000000#0.000000
    481.000000
End Object
Start Object020
    95081.929688 -57028.476563 16383.500000
    807123463
    0.000000#0.000000#270.000000
    339.000000
End Object
Start Object021
    97554.078125 -64739.324219 16383.500000
    807123463
    0.000000#0.000000#270.000000
    476.000000
End Object
Start Object022
    96043.328125 -64745.625000 16383.500000
    807123463
    0.000000#0.000000#270.000000
    476.000000
End Object
Start Object023
    97556.492188 -62353.417969 16383.500000
    807123463
    0.000000#0.000000#270.000000
    476.000000
End Object
Start Object024
    96048.023438 -62356.597656 16383.500000
    807123463
    0.000000#0.000000#270.000000
    476.000000
End Object
Start Object025
    89537.242188 -68570.726563 16383.500000
    807123463
    0.000000#0.000000#270.000000
    476.000000
End Object
Start Object026
    95092.421875 -54925.554688 16383.500000
    807123463
    0.000000#0.000000#270.000000
    339.000000
End Object
Start Object027
    95093.617188 -52829.835938 16383.500000
    807123463
    0.000000#0.000000#270.000000
    339.000000
End Object
Start Object028
    93650.765625 -51386.160156 16383.500000
    807123463
    0.000000#0.000000#270.000000
    339.000000
End Object
Start Object029
    89460.710938 -51383.820313 16383.500000
    807123463
    0.000000#0.000000#270.000000
    339.000000
End Object
Start Object030
    88017.648438 -52821.859375 16383.500000
    807123463
    0.000000#0.000000#270.000000
    339.000000
End Object
Start Object031
    88144.921875 -70044.578125 16383.500000
    807123463
    0.000000#0.000000#270.000000
    476.000000
End Object
Start Object032
    88143.289063 -74261.859375 16383.500000
    807123463
    0.000000#0.000000#270.000000
    476.000000
End Object
Start Object033
    95270.281250 -70052.218750 16383.500000
    807123463
    0.000000#0.000000#270.000000
    476.000000
End Object
Start Object034
    93822.054688 -68574.117188 16383.500000
    807123463
    0.000000#0.000000#270.000000
    476.000000
End Object
Start Object035
    87610.648438 -53678.351563 16383.500000
    807123463
    0.000000#0.000000#0.000000
    481.000000
End Object
Start Object036
    98286.250000 -61369.574219 16383.500000
    807123463
    0.000000#0.000000#270.000000
    343.000000
End Object
Start Object037
    80912.023438 -68611.171875 16383.500000
    807123463
    0.000000#0.000000#270.000000
    343.000000
End Object
Start Object038
    83120.375000 -68617.492188 16383.500000
    807123463
    0.000000#0.000000#270.000000
    343.000000
End Object
Start Object039
    85137.851563 -68618.882813 16383.500000
    807123463
    0.000000#0.000000#270.000000
    343.000000
End Object
Start Object040
    88207.335938 -63594.312500 16383.500000
    807123463
    0.000000#0.000000#270.000000
    343.000000
End Object
Start Object041
    88201.664063 -61495.570313 16383.500000
    807123463
    0.000000#0.000000#270.000000
    343.000000
End Object
Start Object042
    89649.710938 -60055.511719 16383.500000
    807123463
    0.000000#0.000000#270.000000
    343.000000
End Object
Start Object043
    93839.937500 -60058.273438 16383.500000
    807123463
    0.000000#0.000000#270.000000
    343.000000
End Object
Start Object044
    95269.281250 -74265.242188 16383.500000
    807123463
    0.000000#0.000000#270.000000
    476.000000
End Object
Start Object045
    93826.796875 -75717.640625 16383.500000
    807123463
    0.000000#0.000000#270.000000
    476.000000
End Object
Start Object046
    89634.679688 -75715.921875 16383.500000
    807123463
    0.000000#0.000000#270.000000
    476.000000
End Object
Start Object047
    95281.250000 -61503.886719 16383.500000
    807123463
    0.000000#0.000000#270.000000
    343.000000
End Object
Start Object048
    86107.085938 -53657.332031 16383.500000
    807123463
    0.000000#0.000000#0.000000
    481.000000
End Object
Start Object049
    84946.320313 -53656.808594 16383.500000
    807123463
    0.000000#0.000000#0.000000
    481.000000
End Object
Start Object050
    83681.718750 -53659.605469 16383.500000
    807123463
    0.000000#0.000000#0.000000
    481.000000
End Object
Start Object051
    97679.914063 -73417.953125 16383.500000
    807123463
    0.000000#0.000000#0.000000
    481.000000
End Object
Start Object052
    96181.429688 -73424.171875 16383.500000
    807123463
    0.000000#0.000000#0.000000
    481.000000
End Object
Start Object053
    88018.656250 -57022.367188 16383.500000
    807123463
    0.000000#0.000000#270.000000
    339.000000
End Object
Start Object054
    89460.609375 -58456.406250 16383.500000
    807123463
    0.000000#0.000000#270.000000
    339.000000
End Object
Start Object055
    93647.960938 -58461.253906 16383.500000
    807123463
    0.000000#0.000000#270.000000
    339.000000
End Object
Start Object056
    99725.328125 -67011.007813 16383.500000
    807123463
    0.000000#0.000000#270.000000
    343.000000
End Object
Start Object057
    98285.117188 -65572.906250 16383.500000
    807123463
    0.000000#0.000000#270.000000
    343.000000
End Object
Start Object058
    93847.507813 -67126.726563 16383.500000
    807123463
    0.000000#0.000000#270.000000
    343.000000
End Object
Start Object059
    95280.601563 -65693.273438 16383.500000
    807123463
    0.000000#0.000000#270.000000
    343.000000
End Object
Start Object060
    84206.851563 -76561.257813 16383.500000
    807123463
    0.000000#0.000000#0.000000
    481.000000
End Object
Start Object061
    95893.093750 -73420.179688 16383.500000
    807123463
    0.000000#0.000000#0.000000
    481.000000
End Object
Start Object062
    92945.812500 -76588.664063 16383.500000
    807123463
    0.000000#0.000000#0.000000
    481.000000
End Object
Start Object063
    90566.890625 -76587.468750 16383.500000
    807123463
    0.000000#0.000000#0.000000
    481.000000
End Object
Start Object064
    87619.085938 -56026.503906 16383.500000
    807123463
    0.000000#0.000000#0.000000
    481.000000
End Object
Start Object065
    100759.070313 -76674.617188 16383.500000
    807123463
    0.000000#0.000000#0.000000
    481.000000
End Object
Start Object066
    90438.710938 -59187.578125 16383.500000
    807123463
    0.000000#0.000000#0.000000
    481.000000
End Object
Start Object067
    92840.531250 -59176.406250 16383.500000
    807123463
    0.000000#0.000000#0.000000
    481.000000
End Object
Start Object068
    90540.085938 -67879.382813 16383.500000
    807123463
    0.000000#0.000000#0.000000
    481.000000
End Object
Start Object069
    92924.914063 -67893.414063 16383.500000
    807123463
    0.000000#0.000000#0.000000
    481.000000
End Object
Start Object070
    87289.031250 -70933.593750 16383.500000
    807123463
    0.000000#0.000000#0.000000
    481.000000
End Object
Start Object071
    87262.000000 -73311.820313 16383.500000
    807123463
    0.000000#0.000000#0.000000
    481.000000
End Object
Start Object072
    99858.679688 -75746.929688 16383.500000
    807123463
    0.000000#0.000000#270.000000
    478.000000
End Object
Start Object073
    98385.296875 -74351.984375 16383.500000
    807123463
    0.000000#0.000000#270.000000
    478.000000
End Object
Start Object074
    98382.109375 -70063.000000 16383.500000
    807123463
    0.000000#0.000000#270.000000
    478.000000
End Object
Start Object075
    99868.539063 -68613.781250 16383.500000
    807123463
    0.000000#0.000000#270.000000
    478.000000
End Object
Start Object076
    81602.218750 -56909.785156 16383.500000
    807123463
    0.000000#0.000000#180.000000
    333.000000
End Object
Start Object077
    80129.937500 -58363.183594 16383.500000
    807123463
    0.000000#0.000000#180.000000
    333.000000
End Object
Start Object078
    78025.437500 -58363.988281 16383.500000
    807123463
    0.000000#0.000000#180.000000
    333.000000
End Object
Start Object079
    80146.101563 -51236.277344 16383.500000
    807123463
    0.000000#0.000000#180.000000
    333.000000
End Object
Start Object080
    81592.914063 -52694.585938 16383.500000
    807123463
    0.000000#0.000000#180.000000
    333.000000
End Object
Start Object081
    78022.195313 -54801.367188 16383.500000
    1276175125
    0.000000#0.000000#180.000000
    0.000000
End Object
Start Object082
    83020.000000 -72170.000000 16383.500000
    1276175125
    0.000000#0.000000#90.000000
    0.000000
End Object
Start Object083
    96000.000000 -72220.000000 16383.500000
    2847936845
    0.000000#0.000000#270.000000
    0.000000
End Object
Start Object084
    91720.000000 -67990.000000 16383.500000
    2847936845
    0.000000#0.000000#180.000000
    0.000000
End Object
Start Object085
    101920.000000 -67780.000000 16383.500000
    2847936845
    0.000000#0.000000#180.000000
    0.000000
End Object
Start Object086
    91630.000000 -59290.000000 16383.500000
    2847936845
    0.000000#0.000000#180.000000
    0.000000
End Object
Start Object087
    87370.000000 -72130.000000 16383.500000
    2847936845
    0.000000#0.000000#270.000000
    0.000000
End Object
Start Object088
    96960.000000 -72230.000000 16383.500000
    3322686878
    0.000000#0.000000#270.000000
    0.000000
End Object
Start Object089
    96770.000000 -63540.000000 16383.500000
    3322686878
    0.000000#0.000000#90.000000
    0.000000
End Object
Start Object090
    84920.000000 -54850.000000 16383.500000
    3453634549
    0.000000#0.000000#90.000000
    0.000000
End Object
Start Object091
    91710.000000 -72150.000000 16383.500000
    3740805795
    0.000000#0.000000#180.000000
    0.000000
End Object
Start Object092
    101960.000000 -72180.000000 16383.500000
    3740805795
    0.000000#0.000000#270.000000
    0.000000
End Object
Start Object093
    92925.531250 -68775.921875 16383.500000
    3982077190
    0.000000#0.000000#270.000000
    1662.000000
End Object
Start Object094
    92947.375000 -66966.367188 16383.500000
    3982077190
    0.000000#0.000000#270.000000
    1515.000000
End Object
Start Object095
    90531.765625 -66938.085938 16383.500000
    3982077190
    0.000000#0.000000#270.000000
    1515.000000
End Object
Start Object096
    86357.109375 -70987.250000 16383.500000
    3982077190
    0.000000#0.000000#0.000000
    1522.000000
End Object
Start Object097
    86391.562500 -73380.742188 16383.500000
    3982077190
    0.000000#0.000000#0.000000
    1522.000000
End Object
Start Object098
    84227.835938 -75553.968750 16383.500000
    3982077190
    0.000000#0.000000#0.000000
    1522.000000
End Object
Start Object099
    81813.031250 -75546.062500 16383.500000
    3982077190
    0.000000#0.000000#0.000000
    1522.000000
End Object
Start Object100
    79653.085938 -73387.382813 16383.500000
    3982077190
    0.000000#0.000000#0.000000
    1522.000000
End Object
Start Object101
    79657.843750 -70966.210938 16383.500000
    3982077190
    0.000000#0.000000#0.000000
    1522.000000
End Object
Start Object102
    81819.007813 -68819.101563 16383.500000
    3982077190
    0.000000#0.000000#0.000000
    1522.000000
End Object
Start Object103
    84237.492188 -68818.054688 16383.500000
    3982077190
    0.000000#0.000000#0.000000
    1522.000000
End Object
Start Object104
    88405.484375 -64802.671875 16383.500000
    3982077190
    0.000000#0.000000#270.000000
    1515.000000
End Object
Start Object105
    88409.921875 -62399.644531 16383.500000
    3982077190
    0.000000#0.000000#270.000000
    1515.000000
End Object
Start Object106
    90539.734375 -60252.238281 16383.500000
    3982077190
    0.000000#0.000000#270.000000
    1515.000000
End Object
Start Object107
    92934.054688 -60263.601563 16383.500000
    3982077190
    0.000000#0.000000#270.000000
    1515.000000
End Object
Start Object108
    95082.187500 -62395.832031 16383.500000
    3982077190
    0.000000#0.000000#270.000000
    1515.000000
End Object
Start Object109
    95098.648438 -64798.128906 16383.500000
    3982077190
    0.000000#0.000000#270.000000
    1515.000000
End Object
Start Object110
    94894.148438 -56120.289063 16383.500000
    3982077190
    0.000000#0.000000#270.000000
    1515.000000
End Object
Start Object111
    92758.929688 -58259.312500 16383.500000
    3982077190
    0.000000#0.000000#270.000000
    1515.000000
End Object
Start Object112
    90358.585938 -58267.207031 16383.500000
    3982077190
    0.000000#0.000000#270.000000
    1515.000000
End Object
Start Object113
    88206.671875 -56123.535156 16383.500000
    3982077190
    0.000000#0.000000#270.000000
    1515.000000
End Object
Start Object114
    100610.359375 -66814.804688 16383.500000
    3982077190
    0.000000#0.000000#270.000000
    1515.000000
End Object
Start Object115
    100599.015625 -60136.093750 16383.500000
    3982077190
    0.000000#0.000000#270.000000
    1515.000000
End Object
Start Object116
    98491.335938 -62289.542969 16383.500000
    3982077190
    0.000000#0.000000#270.000000
    1515.000000
End Object
Start Object117
    88202.601563 -53729.910156 16383.500000
    3982077190
    0.000000#0.000000#270.000000
    1515.000000
End Object
Start Object118
    90367.468750 -51568.167969 16383.500000
    3982077190
    0.000000#0.000000#270.000000
    1515.000000
End Object
Start Object119
    92763.789063 -51572.816406 16383.500000
    3982077190
    0.000000#0.000000#270.000000
    1515.000000
End Object
Start Object120
    94889.679688 -53720.644531 16383.500000
    3982077190
    0.000000#0.000000#270.000000
    1515.000000
End Object
Start Object121
    98470.976563 -64682.882813 16383.500000
    3982077190
    0.000000#0.000000#270.000000
    1515.000000
End Object
Start Object122
    98588.093750 -73389.453125 16383.500000
    3982077190
    0.000000#0.000000#270.000000
    1667.000000
End Object
Start Object123
    98579.867188 -70961.710938 16383.500000
    3982077190
    0.000000#0.000000#270.000000
    1667.000000
End Object
Start Object124
    100768.687500 -68818.851563 16383.500000
    3982077190
    0.000000#0.000000#270.000000
    1667.000000
End Object
Start Object125
    100755.906250 -75558.171875 16383.500000
    3982077190
    0.000000#0.000000#270.000000
    1667.000000
End Object
Start Object126
    95123.906250 -70952.031250 16383.500000
    3982077190
    0.000000#0.000000#270.000000
    1662.000000
End Object
Start Object127
    88322.515625 -70947.781250 16383.500000
    3982077190
    0.000000#0.000000#270.000000
    1662.000000
End Object
Start Object128
    76811.109375 -51419.632813 16383.500000
    3982077190
    0.000000#0.000000#180.000000
    1511.000000
End Object
Start Object129
    79236.851563 -51415.179688 16383.500000
    3982077190
    0.000000#0.000000#180.000000
    1511.000000
End Object
Start Object130
    81393.750000 -53604.964844 16383.500000
    3982077190
    0.000000#0.000000#180.000000
    1511.000000
End Object
Start Object131
    81409.367188 -56013.839844 16383.500000
    3982077190
    0.000000#0.000000#180.000000
    1511.000000
End Object
Start Object132
    79238.125000 -58182.105469 16383.500000
    3982077190
    0.000000#0.000000#180.000000
    1511.000000
End Object
Start Object133
    76817.695313 -58172.597656 16383.500000
    3982077190
    0.000000#0.000000#180.000000
    1511.000000
End Object
Start Object134
    88349.718750 -73354.562500 16383.500000
    3982077190
    0.000000#0.000000#270.000000
    1662.000000
End Object
Start Object135
    90495.539063 -75525.562500 16383.500000
    3982077190
    0.000000#0.000000#270.000000
    1662.000000
End Object
Start Object136
    92908.812500 -75513.625000 16383.500000
    3982077190
    0.000000#0.000000#270.000000
    1662.000000
End Object
Start Object137
    95088.734375 -73363.351563 16383.500000
    3982077190
    0.000000#0.000000#270.000000
    1662.000000
End Object
Start Object138
    90519.937500 -68772.281250 16383.500000
    3982077190
    0.000000#0.000000#270.000000
    1662.000000
End Object
Start Object139
    91740.000000 -63590.000000 16383.500000
    4180790606
    0.000000#0.000000#90.000000
    0.000000
End Object
Start Object140
    101830.000000 -63470.000000 16383.500000
    4180790606
    0.000000#0.000000#0.000000
    0.000000
End Object
Start Object141
    91560.000000 -54930.000000 16383.500000
    4180790606
    0.000000#0.000000#270.000000
    0.000000
End Object

ObjectCount 142
