AreaDataFile

Start Object000
    140771.515625 -134038.890625 16383.500000
    807123463
    0.000000#0.000000#270.000000
    339.000000
End Object
Start Object001
    142969.859375 -134043.046875 16383.500000
    807123463
    0.000000#0.000000#270.000000
    339.000000
End Object
Start Object002
    144430.640625 -132595.687500 16383.500000
    807123463
    0.000000#0.000000#270.000000
    339.000000
End Object
Start Object003
    144422.781250 -130473.101563 16383.500000
    807123463
    0.000000#0.000000#270.000000
    339.000000
End Object
Start Object004
    138491.406250 -140981.593750 16383.500000
    807123463
    0.000000#0.000000#0.000000
    821.000000
End Object
Start Object005
    138485.765625 -140160.843750 16383.500000
    807123463
    0.000000#0.000000#0.000000
    821.000000
End Object
Start Object006
    136671.500000 -141748.796875 16383.500000
    807123463
    0.000000#0.000000#0.000000
    472.000000
End Object
Start Object007
    135392.218750 -141759.437500 16383.500000
    807123463
    0.000000#0.000000#0.000000
    472.000000
End Object
Start Object008
    134233.390625 -141758.046875 16383.500000
    807123463
    0.000000#0.000000#0.000000
    472.000000
End Object
Start Object009
    132957.359375 -141760.890625 16383.500000
    807123463
    0.000000#0.000000#0.000000
    472.000000
End Object
Start Object010
    131801.187500 -141757.656250 16383.500000
    807123463
    0.000000#0.000000#0.000000
    472.000000
End Object
Start Object011
    131788.687500 -139385.125000 16383.500000
    807123463
    0.000000#0.000000#0.000000
    472.000000
End Object
Start Object012
    132953.718750 -139384.078125 16383.500000
    807123463
    0.000000#0.000000#0.000000
    472.000000
End Object
Start Object013
    134221.578125 -139381.812500 16383.500000
    807123463
    0.000000#0.000000#0.000000
    472.000000
End Object
Start Object014
    135386.468750 -139379.140625 16383.500000
    807123463
    0.000000#0.000000#0.000000
    472.000000
End Object
Start Object015
    136674.546875 -139378.250000 16383.500000
    807123463
    0.000000#0.000000#0.000000
    472.000000
End Object
Start Object016
    129422.078125 -137006.843750 16383.500000
    807123463
    0.000000#0.000000#270.000000
    339.000000
End Object
Start Object017
    144425.765625 -128384.273438 16383.500000
    807123463
    0.000000#0.000000#270.000000
    339.000000
End Object
Start Object018
    131505.875000 -129366.281250 16383.500000
    807123463
    0.000000#0.000000#0.000000
    481.000000
End Object
Start Object019
    132668.906250 -129371.000000 16383.500000
    807123463
    0.000000#0.000000#0.000000
    481.000000
End Object
Start Object020
    133939.781250 -129371.718750 16383.500000
    807123463
    0.000000#0.000000#0.000000
    481.000000
End Object
Start Object021
    135092.765625 -129368.453125 16383.500000
    807123463
    0.000000#0.000000#0.000000
    481.000000
End Object
Start Object022
    136601.593750 -129378.773438 16383.500000
    807123463
    0.000000#0.000000#0.000000
    481.000000
End Object
Start Object023
    136601.656250 -131756.515625 16383.500000
    807123463
    0.000000#0.000000#0.000000
    481.000000
End Object
Start Object024
    135098.609375 -131766.468750 16383.500000
    807123463
    0.000000#0.000000#0.000000
    481.000000
End Object
Start Object025
    133930.390625 -131745.031250 16383.500000
    807123463
    0.000000#0.000000#0.000000
    481.000000
End Object
Start Object026
    132665.140625 -131757.593750 16383.500000
    807123463
    0.000000#0.000000#0.000000
    481.000000
End Object
Start Object027
    131504.843750 -131758.234375 16383.500000
    807123463
    0.000000#0.000000#0.000000
    481.000000
End Object
Start Object028
    130700.273438 -128498.054688 16383.500000
    807123463
    0.000000#0.000000#270.000000
    339.000000
End Object
Start Object029
    130704.164063 -132677.093750 16383.500000
    807123463
    0.000000#0.000000#270.000000
    339.000000
End Object
Start Object030
    129255.296875 -134123.171875 16383.500000
    807123463
    0.000000#0.000000#270.000000
    339.000000
End Object
Start Object031
    129409.179688 -144081.765625 16383.500000
    807123463
    0.000000#0.000000#270.000000
    339.000000
End Object
Start Object032
    130850.281250 -142640.609375 16383.500000
    807123463
    0.000000#0.000000#270.000000
    339.000000
End Object
Start Object033
    130852.148438 -138451.156250 16383.500000
    807123463
    0.000000#0.000000#270.000000
    339.000000
End Object
Start Object034
    128385.429688 -136315.343750 16383.500000
    807123463
    0.000000#0.000000#0.000000
    481.000000
End Object
Start Object035
    128389.625000 -134823.640625 16383.500000
    807123463
    0.000000#0.000000#0.000000
    481.000000
End Object
Start Object036
    137301.171875 -128371.835938 16383.500000
    807123463
    0.000000#0.000000#270.000000
    339.000000
End Object
Start Object037
    137309.906250 -132587.062500 16383.500000
    807123463
    0.000000#0.000000#270.000000
    339.000000
End Object
Start Object038
    138749.390625 -134045.281250 16383.500000
    807123463
    0.000000#0.000000#270.000000
    339.000000
End Object
Start Object039
    140870.000000 -130490.000000 16383.500000
    1276175125
    0.000000#0.000000#270.000000
    0.000000
End Object
Start Object040
    137927.093750 -140605.015625 16383.500000
    1812446801
    0.000000#0.000000#270.000000
    267.000000
End Object
Start Object041
    134200.000000 -140570.000000 16383.500000
    1995603791
    0.000000#0.000000#90.000000
    0.000000
End Object
Start Object042
    133910.000000 -130560.000000 16383.500000
    3453634549
    0.000000#0.000000#90.000000
    0.000000
End Object
Start Object043
    128507.257813 -137215.953125 16383.500000
    3982077190
    0.000000#0.000000#270.000000
    1520.000000
End Object
Start Object044
    128523.109375 -143874.437500 16383.500000
    3982077190
    0.000000#0.000000#270.000000
    1520.000000
End Object
Start Object045
    130657.523438 -141752.296875 16383.500000
    3982077190
    0.000000#0.000000#270.000000
    1520.000000
End Object
Start Object046
    130665.882813 -139344.015625 16383.500000
    3982077190
    0.000000#0.000000#270.000000
    1520.000000
End Object
Start Object047
    130503.007813 -131792.765625 16383.500000
    3982077190
    0.000000#0.000000#270.000000
    1520.000000
End Object
Start Object048
    128356.296875 -133931.812500 16383.500000
    3982077190
    0.000000#0.000000#270.000000
    1520.000000
End Object
Start Object049
    130495.593750 -129379.625000 16383.500000
    3982077190
    0.000000#0.000000#270.000000
    1520.000000
End Object
Start Object050
    137500.062500 -129281.828125 16383.500000
    3982077190
    0.000000#0.000000#270.000000
    1520.000000
End Object
Start Object051
    144234.078125 -129286.906250 16383.500000
    3982077190
    0.000000#0.000000#270.000000
    1520.000000
End Object
Start Object052
    144245.296875 -131700.062500 16383.500000
    3982077190
    0.000000#0.000000#270.000000
    1520.000000
End Object
Start Object053
    142064.734375 -133840.421875 16383.500000
    3982077190
    0.000000#0.000000#270.000000
    1520.000000
End Object
Start Object054
    139658.031250 -133851.000000 16383.500000
    3982077190
    0.000000#0.000000#270.000000
    1520.000000
End Object
Start Object055
    137497.125000 -131693.953125 16383.500000
    3982077190
    0.000000#0.000000#270.000000
    1520.000000
End Object

ObjectCount 56
