AreaDataFile

Start Object000
    67673.796875 -119750.695313 16383.500000
    807123463
    0.000000#0.000000#0.000000
    481.000000
End Object
Start Object001
    66505.054688 -119757.570313 16383.500000
    807123463
    0.000000#0.000000#0.000000
    481.000000
End Object
Start Object002
    65006.710938 -119751.484375 16383.500000
    807123463
    0.000000#0.000000#0.000000
    481.000000
End Object
Start Object003
    61881.125000 -116813.617188 16383.500000
    807123463
    0.000000#0.000000#0.000000
    481.000000
End Object
Start Object004
    61888.894531 -115313.273438 16383.500000
    807123463
    0.000000#0.000000#0.000000
    481.000000
End Object
Start Object005
    61900.179688 -114150.250000 16383.500000
    807123463
    0.000000#0.000000#0.000000
    481.000000
End Object
Start Object006
    61894.593750 -112874.992188 16383.500000
    807123463
    0.000000#0.000000#0.000000
    481.000000
End Object
Start Object007
    61886.871094 -111722.757813 16383.500000
    807123463
    0.000000#0.000000#0.000000
    481.000000
End Object
Start Object008
    59508.933594 -111716.453125 16383.500000
    807123463
    0.000000#0.000000#0.000000
    481.000000
End Object
Start Object009
    52200.261719 -121617.601563 16383.500000
    807123463
    0.000000#0.000000#0.000000
    481.000000
End Object
Start Object010
    52195.566406 -120464.484375 16383.500000
    807123463
    0.000000#0.000000#0.000000
    481.000000
End Object
Start Object011
    52191.488281 -119180.234375 16383.500000
    807123463
    0.000000#0.000000#0.000000
    481.000000
End Object
Start Object012
    52186.742188 -118029.421875 16383.500000
    807123463
    0.000000#0.000000#0.000000
    481.000000
End Object
Start Object013
    52187.796875 -116774.914063 16383.500000
    807123463
    0.000000#0.000000#0.000000
    481.000000
End Object
Start Object014
    64884.843750 -108455.781250 16383.500000
    807123463
    0.000000#0.000000#0.000000
    481.000000
End Object
Start Object015
    64890.449219 -106066.929688 16383.500000
    807123463
    0.000000#0.000000#0.000000
    481.000000
End Object
Start Object016
    56795.046875 -108428.671875 16383.500000
    807123463
    0.000000#0.000000#0.000000
    481.000000
End Object
Start Object017
    55287.515625 -108443.390625 16383.500000
    807123463
    0.000000#0.000000#0.000000
    481.000000
End Object
Start Object018
    55279.707031 -106052.765625 16383.500000
    807123463
    0.000000#0.000000#0.000000
    481.000000
End Object
Start Object019
    56784.093750 -106044.429688 16383.500000
    807123463
    0.000000#0.000000#0.000000
    481.000000
End Object
Start Object020
    52252.726563 -102989.710938 16383.500000
    807123463
    0.000000#0.000000#0.000000
    481.000000
End Object
Start Object021
    59505.253906 -112878.578125 16383.500000
    807123463
    0.000000#0.000000#0.000000
    481.000000
End Object
Start Object022
    59510.476563 -114159.343750 16383.500000
    807123463
    0.000000#0.000000#0.000000
    481.000000
End Object
Start Object023
    52182.550781 -123122.335938 16383.500000
    807123463
    0.000000#0.000000#0.000000
    481.000000
End Object
Start Object024
    52188.968750 -115272.765625 16383.500000
    807123463
    0.000000#0.000000#0.000000
    481.000000
End Object
Start Object025
    52180.054688 -114117.710938 16383.500000
    807123463
    0.000000#0.000000#0.000000
    481.000000
End Object
Start Object026
    52194.238281 -112849.390625 16383.500000
    807123463
    0.000000#0.000000#0.000000
    481.000000
End Object
Start Object027
    52187.371094 -111680.984375 16383.500000
    807123463
    0.000000#0.000000#0.000000
    481.000000
End Object
Start Object028
    59505.074219 -116813.156250 16383.500000
    807123463
    0.000000#0.000000#0.000000
    481.000000
End Object
Start Object029
    59518.238281 -115309.851563 16383.500000
    807123463
    0.000000#0.000000#0.000000
    481.000000
End Object
Start Object030
    75243.687500 -122118.789063 16383.500000
    807123463
    0.000000#0.000000#0.000000
    481.000000
End Object
Start Object031
    73963.609375 -122117.375000 16383.500000
    807123463
    0.000000#0.000000#0.000000
    481.000000
End Object
Start Object032
    72805.601563 -122124.546875 16383.500000
    807123463
    0.000000#0.000000#0.000000
    481.000000
End Object
Start Object033
    71304.953125 -122114.109375 16383.500000
    807123463
    0.000000#0.000000#0.000000
    481.000000
End Object
Start Object034
    66498.265625 -122144.414063 16383.500000
    807123463
    0.000000#0.000000#0.000000
    481.000000
End Object
Start Object035
    64989.886719 -122134.882813 16383.500000
    807123463
    0.000000#0.000000#0.000000
    481.000000
End Object
Start Object036
    73232.367188 -106009.859375 16383.500000
    807123463
    0.000000#0.000000#0.000000
    481.000000
End Object
Start Object037
    74747.273438 -106016.140625 16383.500000
    807123463
    0.000000#0.000000#0.000000
    481.000000
End Object
Start Object038
    76017.835938 -106004.148438 16383.500000
    807123463
    0.000000#0.000000#0.000000
    481.000000
End Object
Start Object039
    76010.781250 -108383.882813 16383.500000
    807123463
    0.000000#0.000000#0.000000
    481.000000
End Object
Start Object040
    74740.757813 -108393.781250 16383.500000
    807123463
    0.000000#0.000000#0.000000
    481.000000
End Object
Start Object041
    73237.281250 -108388.679688 16383.500000
    807123463
    0.000000#0.000000#0.000000
    481.000000
End Object
Start Object042
    68153.312500 -103076.515625 16383.500000
    807123463
    0.000000#0.000000#0.000000
    481.000000
End Object
Start Object043
    70549.656250 -103081.867188 16383.500000
    807123463
    0.000000#0.000000#0.000000
    481.000000
End Object
Start Object044
    52169.804688 -126045.992188 16383.500000
    807123463
    0.000000#0.000000#0.000000
    481.000000
End Object
Start Object045
    52187.546875 -125640.164063 16383.500000
    807123463
    0.000000#0.000000#0.000000
    481.000000
End Object
Start Object046
    52177.789063 -124128.414063 16383.500000
    807123463
    0.000000#0.000000#0.000000
    481.000000
End Object
Start Object047
    76402.046875 -122127.195313 16383.500000
    807123463
    0.000000#0.000000#0.000000
    481.000000
End Object
Start Object048
    76387.312500 -119730.023438 16383.500000
    807123463
    0.000000#0.000000#0.000000
    481.000000
End Object
Start Object049
    75241.617188 -119725.609375 16383.500000
    807123463
    0.000000#0.000000#0.000000
    481.000000
End Object
Start Object050
    73965.187500 -119733.804688 16383.500000
    807123463
    0.000000#0.000000#0.000000
    481.000000
End Object
Start Object051
    70097.828125 -122152.539063 16383.500000
    807123463
    0.000000#0.000000#0.000000
    481.000000
End Object
Start Object052
    68934.453125 -122137.796875 16383.500000
    807123463
    0.000000#0.000000#0.000000
    481.000000
End Object
Start Object053
    67669.390625 -122138.601563 16383.500000
    807123463
    0.000000#0.000000#0.000000
    481.000000
End Object
Start Object054
    72816.835938 -119724.148438 16383.500000
    807123463
    0.000000#0.000000#0.000000
    481.000000
End Object
Start Object055
    71303.257813 -119728.703125 16383.500000
    807123463
    0.000000#0.000000#0.000000
    481.000000
End Object
Start Object056
    70096.031250 -119751.976563 16383.500000
    807123463
    0.000000#0.000000#0.000000
    481.000000
End Object
Start Object057
    68943.226563 -119744.656250 16383.500000
    807123463
    0.000000#0.000000#0.000000
    481.000000
End Object
Start Object058
    63281.476563 -127069.242188 16383.500000
    807123463
    0.000000#0.000000#270.000000
    339.000000
End Object
Start Object059
    65379.906250 -127080.492188 16383.500000
    807123463
    0.000000#0.000000#270.000000
    339.000000
End Object
Start Object060
    67486.164063 -127081.203125 16383.500000
    807123463
    0.000000#0.000000#270.000000
    339.000000
End Object
Start Object061
    64276.136719 -123057.414063 16383.500000
    807123463
    0.000000#0.000000#270.000000
    339.000000
End Object
Start Object062
    62821.722656 -124506.718750 16383.500000
    807123463
    0.000000#0.000000#270.000000
    339.000000
End Object
Start Object063
    60712.996094 -124507.031250 16383.500000
    807123463
    0.000000#0.000000#270.000000
    339.000000
End Object
Start Object064
    58604.402344 -124508.375000 16383.500000
    807123463
    0.000000#0.000000#270.000000
    339.000000
End Object
Start Object065
    57151.507813 -123045.664063 16383.500000
    807123463
    0.000000#0.000000#270.000000
    339.000000
End Object
Start Object066
    57162.277344 -120843.898438 16383.500000
    807123463
    0.000000#0.000000#270.000000
    339.000000
End Object
Start Object067
    57160.277344 -118834.007813 16383.500000
    807123463
    0.000000#0.000000#270.000000
    339.000000
End Object
Start Object068
    58616.082031 -117381.210938 16383.500000
    807123463
    0.000000#0.000000#270.000000
    339.000000
End Object
Start Object069
    62825.441406 -117382.539063 16383.500000
    807123463
    0.000000#0.000000#270.000000
    339.000000
End Object
Start Object070
    64281.507813 -118839.328125 16383.500000
    807123463
    0.000000#0.000000#270.000000
    339.000000
End Object
Start Object071
    53030.042969 -126938.679688 16383.500000
    807123463
    0.000000#0.000000#270.000000
    339.000000
End Object
Start Object072
    53141.300781 -110770.882813 16383.500000
    807123463
    0.000000#0.000000#270.000000
    491.000000
End Object
Start Object073
    54577.976563 -109325.367188 16383.500000
    807123463
    0.000000#0.000000#270.000000
    491.000000
End Object
Start Object074
    54578.390625 -105110.273438 16383.500000
    807123463
    0.000000#0.000000#270.000000
    491.000000
End Object
Start Object075
    53130.437500 -103639.546875 16383.500000
    807123463
    0.000000#0.000000#270.000000
    491.000000
End Object
Start Object076
    58613.023438 -110819.695313 16383.500000
    807123463
    0.000000#0.000000#270.000000
    338.000000
End Object
Start Object077
    57170.367188 -109375.578125 16383.500000
    807123463
    0.000000#0.000000#270.000000
    338.000000
End Object
Start Object078
    57172.492188 -105194.257813 16383.500000
    807123463
    0.000000#0.000000#270.000000
    338.000000
End Object
Start Object079
    58629.941406 -103745.390625 16383.500000
    807123463
    0.000000#0.000000#270.000000
    338.000000
End Object
Start Object080
    60710.808594 -103736.734375 16383.500000
    807123463
    0.000000#0.000000#270.000000
    338.000000
End Object
Start Object081
    62816.601563 -103748.625000 16383.500000
    807123463
    0.000000#0.000000#270.000000
    338.000000
End Object
Start Object082
    67231.515625 -103637.039063 16383.500000
    807123463
    0.000000#0.000000#270.000000
    338.000000
End Object
Start Object083
    65785.718750 -105070.531250 16383.500000
    807123463
    0.000000#0.000000#270.000000
    338.000000
End Object
Start Object084
    65782.257813 -109272.492188 16383.500000
    807123463
    0.000000#0.000000#270.000000
    338.000000
End Object
Start Object085
    67219.585938 -110716.351563 16383.500000
    807123463
    0.000000#0.000000#270.000000
    338.000000
End Object
Start Object086
    69327.273438 -110715.859375 16383.500000
    807123463
    0.000000#0.000000#270.000000
    338.000000
End Object
Start Object087
    71420.273438 -110716.062500 16383.500000
    807123463
    0.000000#0.000000#270.000000
    338.000000
End Object
Start Object088
    72862.914063 -109269.398438 16383.500000
    807123463
    0.000000#0.000000#270.000000
    338.000000
End Object
Start Object089
    71430.679688 -103630.210938 16383.500000
    807123463
    0.000000#0.000000#270.000000
    338.000000
End Object
Start Object090
    72855.203125 -105080.429688 16383.500000
    807123463
    0.000000#0.000000#270.000000
    338.000000
End Object
Start Object091
    62792.390625 -110828.625000 16383.500000
    807123463
    0.000000#0.000000#270.000000
    338.000000
End Object
Start Object092
    64243.031250 -109379.843750 16383.500000
    807123463
    0.000000#0.000000#270.000000
    338.000000
End Object
Start Object093
    64251.843750 -105185.460938 16383.500000
    807123463
    0.000000#0.000000#270.000000
    338.000000
End Object
Start Object094
    60710.000000 -120950.000000 16383.500000
    1276175125
    0.000000#0.000000#180.000000
    0.000000
End Object
Start Object095
    64990.000000 -107270.000000 16383.500000
    2847936845
    0.000000#0.000000#270.000000
    0.000000
End Object
Start Object096
    69360.000000 -102970.000000 16383.500000
    2847936845
    0.000000#0.000000#0.000000
    0.000000
End Object
Start Object097
    74020.000000 -107210.000000 16383.500000
    3322686878
    0.000000#0.000000#270.000000
    0.000000
End Object
Start Object098
    56010.000000 -107240.000000 16383.500000
    3322686878
    0.000000#0.000000#90.000000
    0.000000
End Object
Start Object099
    73990.000000 -120930.000000 16383.500000
    3453634549
    0.000000#0.000000#270.000000
    0.000000
End Object
Start Object100
    60700.000000 -114130.000000 16383.500000
    3453634549
    0.000000#0.000000#0.000000
    0.000000
End Object
Start Object101
    67690.000000 -120950.000000 16383.500000
    3453634549
    0.000000#0.000000#270.000000
    0.000000
End Object
Start Object102
    52229.566406 -103819.429688 16383.500000
    3982077190
    0.000000#0.000000#0.000000
    1658.000000
End Object
Start Object103
    52118.121094 -127134.992188 16383.500000
    3982077190
    0.000000#0.000000#0.000000
    1520.000000
End Object
Start Object104
    64160.539063 -127268.632813 16383.500000
    3982077190
    0.000000#0.000000#0.000000
    1517.000000
End Object
Start Object105
    66582.171875 -127278.609375 16383.500000
    3982077190
    0.000000#0.000000#0.000000
    1517.000000
End Object
Start Object106
    64101.695313 -119738.976563 16383.500000
    3982077190
    0.000000#0.000000#0.000000
    1511.000000
End Object
Start Object107
    64094.082031 -122154.179688 16383.500000
    3982077190
    0.000000#0.000000#0.000000
    1511.000000
End Object
Start Object108
    61934.847656 -124319.929688 16383.500000
    3982077190
    0.000000#0.000000#0.000000
    1511.000000
End Object
Start Object109
    59521.359375 -124312.632813 16383.500000
    3982077190
    0.000000#0.000000#0.000000
    1511.000000
End Object
Start Object110
    57343.042969 -122164.382813 16383.500000
    3982077190
    0.000000#0.000000#0.000000
    1511.000000
End Object
Start Object111
    57360.671875 -119739.375000 16383.500000
    3982077190
    0.000000#0.000000#0.000000
    1511.000000
End Object
Start Object112
    59498.625000 -117597.757813 16383.500000
    3982077190
    0.000000#0.000000#0.000000
    1511.000000
End Object
Start Object113
    61921.757813 -117572.164063 16383.500000
    3982077190
    0.000000#0.000000#0.000000
    1511.000000
End Object
Start Object114
    70532.023438 -110525.070313 16383.500000
    3982077190
    0.000000#0.000000#0.000000
    1508.000000
End Object
Start Object115
    68126.937500 -110534.257813 16383.500000
    3982077190
    0.000000#0.000000#0.000000
    1508.000000
End Object
Start Object116
    65985.351563 -108392.062500 16383.500000
    3982077190
    0.000000#0.000000#0.000000
    1508.000000
End Object
Start Object117
    65984.757813 -105989.960938 16383.500000
    3982077190
    0.000000#0.000000#0.000000
    1508.000000
End Object
Start Object118
    68138.500000 -103832.890625 16383.500000
    3982077190
    0.000000#0.000000#0.000000
    1508.000000
End Object
Start Object119
    70533.585938 -103836.109375 16383.500000
    3982077190
    0.000000#0.000000#0.000000
    1508.000000
End Object
Start Object120
    72693.375000 -105973.000000 16383.500000
    3982077190
    0.000000#0.000000#0.000000
    1508.000000
End Object
Start Object121
    72690.960938 -108392.187500 16383.500000
    3982077190
    0.000000#0.000000#0.000000
    1508.000000
End Object
Start Object122
    64067.503906 -106090.414063 16383.500000
    3982077190
    0.000000#0.000000#0.000000
    1508.000000
End Object
Start Object123
    64064.492188 -108479.500000 16383.500000
    3982077190
    0.000000#0.000000#0.000000
    1508.000000
End Object
Start Object124
    61916.453125 -110624.476563 16383.500000
    3982077190
    0.000000#0.000000#0.000000
    1508.000000
End Object
Start Object125
    59518.531250 -110628.757813 16383.500000
    3982077190
    0.000000#0.000000#0.000000
    1508.000000
End Object
Start Object126
    57369.113281 -108477.984375 16383.500000
    3982077190
    0.000000#0.000000#0.000000
    1508.000000
End Object
Start Object127
    57380.257813 -106092.250000 16383.500000
    3982077190
    0.000000#0.000000#0.000000
    1508.000000
End Object
Start Object128
    59518.925781 -103938.460938 16383.500000
    3982077190
    0.000000#0.000000#0.000000
    1508.000000
End Object
Start Object129
    61908.476563 -103942.882813 16383.500000
    3982077190
    0.000000#0.000000#0.000000
    1508.000000
End Object
Start Object130
    54408.023438 -106011.601563 16383.500000
    3982077190
    0.000000#0.000000#0.000000
    1658.000000
End Object
Start Object131
    54401.496094 -108411.148438 16383.500000
    3982077190
    0.000000#0.000000#0.000000
    1658.000000
End Object
Start Object132
    52230.468750 -110599.148438 16383.500000
    3982077190
    0.000000#0.000000#0.000000
    1658.000000
End Object
Start Object133
    60720.000000 -107280.000000 16383.500000
    4180790606
    0.000000#0.000000#0.000000
    0.000000
End Object
Start Object134
    69320.000000 -107180.000000 16383.500000
    4180790606
    0.000000#0.000000#180.000000
    0.000000
End Object

ObjectCount 135
