AreaDataFile

Start Object000
    48773.292969 -48835.121094 19136.500000
    65510116
    0.000000#0.000000#240.000000
    0.000000
End Object
Start Object001
    47578.910156 -37552.363281 18862.000000
    68844411
    0.000000#0.000000#45.000000
    -5.000000
End Object
Start Object002
    49354.882813 -37304.457031 18870.060547
    68844411
    0.000000#0.000000#330.000000
    -5.000000
End Object
Start Object003
    47560.730469 -38203.285156 18862.000000
    135661669
    0.000000#0.000000#120.000000
    -5.000000
End Object
Start Object004
    48724.281250 -37314.562500 18862.000000
    135661669
    0.000000#0.000000#120.000000
    -5.000000
End Object
Start Object005
    48802.789063 -46460.640625 18964.099609
    486960621
    0.000000#0.000000#0.000000
    -45.000000
End Object
Start Object006
    28096.787109 -35478.261719 17133.500000
    538957537
    0.000000#0.000000#285.000000
    -25.000000
End Object
Start Object007
    27858.634766 -34937.316406 17133.500000
    538957537
    0.000000#0.000000#300.000000
    -25.000000
End Object
Start Object008
    27396.802734 -44091.554688 17082.390625
    538957537
    0.000000#0.000000#90.000000
    -25.000000
End Object
Start Object009
    46994.031250 -40152.867188 18862.730469
    538957537
    0.000000#0.000000#135.000000
    -5.000000
End Object
Start Object010
    50989.796875 -37246.867188 18925.148438
    538957537
    0.000000#0.000000#135.000000
    -5.000000
End Object
Start Object011
    50731.562500 -36986.628906 18913.533203
    538957537
    0.000000#0.000000#135.000000
    -5.000000
End Object
Start Object012
    48825.433594 -36175.171875 18894.562500
    538957537
    0.000000#0.000000#15.000000
    -5.000000
End Object
Start Object013
    49174.960938 -36083.539063 18893.773438
    538957537
    0.000000#0.000000#345.000000
    -5.000000
End Object
Start Object014
    50474.027344 -36724.824219 18902.900391
    538957537
    0.000000#0.000000#150.000000
    -5.000000
End Object
Start Object015
    27747.683594 -42026.941406 17129.921875
    538957537
    0.000000#0.000000#240.000000
    -25.000000
End Object
Start Object016
    51150.894531 -51170.203125 20932.000000
    554622471
    0.000000#0.000000#270.000000
    -10.000000
End Object
Start Object017
    47457.359375 -38186.093750 18862.000000
    565526255
    0.000000#0.000000#120.000000
    -5.000000
End Object
Start Object018
    47719.718750 -37170.644531 18862.000000
    565526255
    0.000000#0.000000#120.000000
    -5.000000
End Object
Start Object019
    48914.062500 -37484.816406 18862.855469
    565526255
    0.000000#0.000000#120.000000
    -5.000000
End Object
Start Object020
    47435.386719 -40783.289063 18874.292969
    569394331
    0.000000#0.000000#120.000000
    -5.000000
End Object
Start Object021
    42040.027344 -28091.652344 17979.439453
    569394331
    0.000000#0.000000#0.000000
    -45.000000
End Object
Start Object022
    45350.390625 -44934.078125 19059.865234
    569394331
    0.000000#0.000000#0.000000
    -45.000000
End Object
Start Object023
    47281.582031 -39052.984375 18862.000000
    625808473
    0.000000#0.000000#90.000000
    -5.000000
End Object
Start Object024
    49379.804688 -37980.062500 18869.130859
    625808473
    0.000000#0.000000#0.000000
    -5.000000
End Object
Start Object025
    47386.562500 -38402.097656 18862.000000
    709567450
    0.000000#0.000000#45.000000
    -5.000000
End Object
Start Object026
    29491.109375 -35751.519531 17133.500000
    796958272
    0.000000#0.000000#135.000000
    -5.000000
End Object
Start Object027
    28558.617188 -35768.738281 17133.500000
    796958272
    0.000000#0.000000#135.000000
    -5.000000
End Object
Start Object028
    28588.287109 -41526.214844 17133.500000
    796958272
    0.000000#0.000000#135.000000
    -5.000000
End Object
Start Object029
    29457.208984 -41430.785156 17133.500000
    796958272
    0.000000#0.000000#135.000000
    -5.000000
End Object
Start Object030
    47001.351563 -38253.515625 18862.000000
    1065153595
    0.000000#0.000000#45.000000
    -5.000000
End Object
Start Object031
    29768.697266 -47208.242188 17296.759766
    1107711305
    0.000000#0.000000#0.000000
    -45.000000
End Object
Start Object032
    48675.757813 -37576.929688 18862.000000
    1217578642
    0.000000#0.000000#0.000000
    -5.000000
End Object
Start Object033
    29000.000000 -36500.000000 17123.250000
    1244865174
    0.000000#0.000000#180.000000
    -10.000000
End Object
Start Object034
    43312.191406 -45251.558594 18406.082031
    1289994135
    0.000000#0.000000#0.000000
    -45.000000
End Object
Start Object035
    47611.625000 -44069.539063 18960.832031
    1353164984
    0.000000#0.000000#0.000000
    -45.000000
End Object
Start Object036
    28008.054688 -41692.398438 17128.099609
    1535330398
    0.000000#0.000000#45.000000
    -5.000000
End Object
Start Object037
    29731.636719 -41085.667969 17133.500000
    1535330398
    0.000000#0.000000#135.000000
    -5.000000
End Object
Start Object038
    28378.578125 -41153.519531 17126.349609
    1535330398
    0.000000#0.000000#75.000000
    -10.000000
End Object
Start Object039
    28301.341797 -36016.808594 17133.251953
    1535330398
    0.000000#0.000000#120.000000
    -15.000000
End Object
Start Object040
    29761.419922 -35961.347656 17133.097656
    1535330398
    0.000000#0.000000#75.000000
    -10.000000
End Object
Start Object041
    27396.808594 -43209.031250 17133.072266
    1535330398
    0.000000#0.000000#90.000000
    -25.000000
End Object
Start Object042
    49715.519531 -36284.960938 18891.158203
    1535330398
    0.000000#0.000000#150.000000
    -5.000000
End Object
Start Object043
    47873.644531 -40704.941406 18876.435547
    1535330398
    0.000000#0.000000#150.000000
    -5.000000
End Object
Start Object044
    46462.718750 -39472.097656 18857.609375
    1535330398
    0.000000#0.000000#285.000000
    -5.000000
End Object
Start Object045
    27460.660156 -42529.617188 17127.890625
    1535330398
    0.000000#0.000000#60.000000
    -25.000000
End Object
Start Object046
    50602.324219 -50439.449219 20917.884766
    1535330398
    0.000000#0.000000#75.000000
    -10.000000
End Object
Start Object047
    51116.687500 -50058.527344 20969.859375
    1535330398
    0.000000#0.000000#30.000000
    -10.000000
End Object
Start Object048
    47146.800781 -39426.003906 18862.000000
    1552435463
    0.000000#0.000000#90.000000
    -5.000000
End Object
Start Object049
    47196.871094 -39522.257813 18862.000000
    1552435463
    0.000000#0.000000#30.000000
    -5.000000
End Object
Start Object050
    47233.312500 -39334.132813 18862.000000
    1552435463
    0.000000#0.000000#30.000000
    -5.000000
End Object
Start Object051
    47236.300781 -38548.492188 18862.000000
    1579396471
    0.000000#0.000000#45.000000
    -5.000000
End Object
Start Object052
    42087.140625 -26933.019531 17906.785156
    1671224775
    0.000000#0.000000#0.000000
    -45.000000
End Object
Start Object053
    27567.107422 -42845.335938 17132.345703
    1671224775
    0.000000#0.000000#0.000000
    -45.000000
End Object
Start Object054
    42088.992188 -50623.691406 18519.955078
    1671224775
    0.000000#0.000000#0.000000
    -45.000000
End Object
Start Object055
    48099.042969 -36863.214844 18862.000000
    1703863918
    0.000000#0.000000#300.000000
    -5.000000
End Object
Start Object056
    48488.648438 -36765.382813 18862.000000
    1703863918
    0.000000#0.000000#270.000000
    -5.000000
End Object
Start Object057
    46414.007813 -38804.199219 18859.210938
    1707164511
    0.000000#0.000000#270.000000
    -5.000000
End Object
Start Object058
    29968.595703 -35485.835938 17133.500000
    1817296008
    0.000000#0.000000#240.000000
    -25.000000
End Object
Start Object059
    47422.136719 -40468.429688 18867.800781
    1817296008
    0.000000#0.000000#150.000000
    -5.000000
End Object
Start Object060
    46412.050781 -38493.933594 18859.650391
    1817296008
    0.000000#0.000000#270.000000
    -5.000000
End Object
Start Object061
    50157.085938 -36543.152344 18894.462891
    1817296008
    0.000000#0.000000#150.000000
    -5.000000
End Object
Start Object062
    46735.808594 -39896.417969 18860.511719
    1817296008
    0.000000#0.000000#135.000000
    -5.000000
End Object
Start Object063
    27394.070313 -43725.199219 17105.886719
    1817296008
    0.000000#0.000000#90.000000
    -25.000000
End Object
Start Object064
    50545.027344 -50945.179688 20914.349609
    1817296008
    0.000000#0.000000#90.000000
    -10.000000
End Object
Start Object065
    48468.355469 -50713.550781 19136.500000
    1985750273
    0.000000#0.000000#270.000000
    0.000000
End Object
Start Object066
    50876.277344 -46734.855469 19136.500000
    1985750273
    0.000000#0.000000#225.000000
    0.000000
End Object
Start Object067
    49467.597656 -48146.027344 19136.500000
    1985750273
    0.000000#0.000000#225.000000
    0.000000
End Object
Start Object068
    50171.242188 -47441.003906 19136.500000
    1985750273
    0.000000#0.000000#225.000000
    0.000000
End Object
Start Object069
    48467.675781 -49716.257813 19136.500000
    1985750273
    0.000000#0.000000#270.000000
    0.000000
End Object
Start Object070
    49242.312500 -35694.500000 18892.494141
    2188671155
    0.000000#0.000000#120.000000
    -5.000000
End Object
Start Object071
    46067.070313 -43871.835938 19037.533203
    2188671155
    0.000000#0.000000#0.000000
    -45.000000
End Object
Start Object072
    31987.544922 -43269.218750 17315.214844
    2188671155
    0.000000#0.000000#0.000000
    -45.000000
End Object
Start Object073
    26976.070313 -46056.968750 17025.580078
    2399205967
    0.000000#0.000000#0.000000
    -45.000000
End Object
Start Object074
    44663.507813 -47956.871094 18373.443359
    2399205967
    0.000000#0.000000#0.000000
    -45.000000
End Object
Start Object075
    30898.896484 -43205.000000 17292.570313
    2399205967
    0.000000#0.000000#0.000000
    -45.000000
End Object
Start Object076
    46262.960938 -37531.292969 18903.535156
    2399205967
    0.000000#0.000000#120.000000
    -5.000000
End Object
Start Object077
    48280.894531 -37683.460938 18862.000000
    2401125466
    0.000000#0.000000#120.000000
    -5.000000
End Object
Start Object078
    49385.085938 -38263.207031 18869.199219
    2435647381
    0.000000#0.000000#120.000000
    -5.000000
End Object
Start Object079
    51156.746094 -37418.292969 18931.505859
    2623965217
    0.000000#0.000000#135.000000
    -5.000000
End Object
Start Object080
    46412.523438 -39040.355469 18858.500000
    2623965217
    0.000000#0.000000#270.000000
    -5.000000
End Object
Start Object081
    47155.867188 -40316.511719 18864.837891
    2623965217
    0.000000#0.000000#135.000000
    -5.000000
End Object
Start Object082
    29934.900391 -41450.468750 17133.500000
    2623965217
    0.000000#0.000000#105.000000
    -25.000000
End Object
Start Object083
    28037.789063 -35253.812500 17133.500000
    2623965217
    0.000000#0.000000#285.000000
    -25.000000
End Object
Start Object084
    49552.777344 -37984.539063 18873.339844
    2664510881
    0.000000#0.000000#45.000000
    -5.000000
End Object
Start Object085
    29708.722656 -47948.406250 17313.500000
    3134961381
    0.000000#0.000000#15.000000
    -50.000000
End Object
Start Object086
    47866.949219 -36154.968750 18894.414063
    3193282972
    0.000000#0.000000#120.000000
    -5.000000
End Object
Start Object087
    45010.195313 -42720.746094 19060.949219
    3193282972
    0.000000#0.000000#0.000000
    -45.000000
End Object
Start Object088
    42615.875000 -44226.437500 18559.695313
    3455398876
    0.000000#0.000000#0.000000
    -45.000000
End Object
Start Object089
    28378.933594 -27531.697266 17835.500000
    3455398876
    0.000000#0.000000#0.000000
    -45.000000
End Object
Start Object090
    46162.324219 -39874.476563 18854.675781
    3748653682
    0.000000#0.000000#120.000000
    -5.000000
End Object
Start Object091
    43124.429688 -47066.394531 18144.775391
    3748653682
    0.000000#0.000000#0.000000
    -45.000000
End Object
Start Object092
    47237.144531 -39428.070313 18862.000000
    3760465448
    0.000000#0.000000#120.000000
    -5.000000
End Object
Start Object093
    47752.175781 -39918.808594 18862.970703
    3986283277
    0.000000#0.000000#330.000000
    -5.000000
End Object
Start Object094
    47562.484375 -39724.398438 18862.000000
    3986283277
    0.000000#0.000000#315.000000
    -5.000000
End Object
Start Object095
    48530.953125 -49249.437500 19136.500000
    4120669631
    0.000000#0.000000#255.000000
    0.000000
End Object
Start Object096
    51051.550781 -46558.640625 19136.500000
    4120669631
    0.000000#0.000000#225.000000
    0.000000
End Object
Start Object097
    48468.152344 -49468.808594 19136.500000
    4120669631
    0.000000#0.000000#270.000000
    0.000000
End Object
Start Object098
    41157.343750 -31626.044922 17993.669922
    4138381346
    0.000000#0.000000#0.000000
    -45.000000
End Object

ObjectCount 99
