AreaDataFile

Start Object000
    79606.765625 -108387.070313 16383.500000
    807123463
    0.000000#0.000000#0.000000
    481.000000
End Object
Start Object001
    81106.375000 -108388.367188 16383.500000
    807123463
    0.000000#0.000000#0.000000
    481.000000
End Object
Start Object002
    82314.390625 -108373.570313 16383.500000
    807123463
    0.000000#0.000000#0.000000
    481.000000
End Object
Start Object003
    83465.796875 -108372.562500 16383.500000
    807123463
    0.000000#0.000000#0.000000
    481.000000
End Object
Start Object004
    84738.601563 -108386.976563 16383.500000
    807123463
    0.000000#0.000000#0.000000
    481.000000
End Object
Start Object005
    85905.437500 -108377.125000 16383.500000
    807123463
    0.000000#0.000000#0.000000
    481.000000
End Object
Start Object006
    87422.585938 -108380.734375 16383.500000
    807123463
    0.000000#0.000000#0.000000
    481.000000
End Object
Start Object007
    88421.726563 -108390.148438 16383.500000
    807123463
    0.000000#0.000000#0.000000
    481.000000
End Object
Start Object008
    89937.609375 -108389.234375 16383.500000
    807123463
    0.000000#0.000000#0.000000
    481.000000
End Object
Start Object009
    91087.281250 -108387.804688 16383.500000
    807123463
    0.000000#0.000000#0.000000
    481.000000
End Object
Start Object010
    92358.851563 -108392.382813 16383.500000
    807123463
    0.000000#0.000000#0.000000
    481.000000
End Object
Start Object011
    93521.945313 -108385.023438 16383.500000
    807123463
    0.000000#0.000000#0.000000
    481.000000
End Object
Start Object012
    94724.945313 -108380.726563 16383.500000
    807123463
    0.000000#0.000000#0.000000
    481.000000
End Object
Start Object013
    96229.945313 -108382.804688 16383.500000
    807123463
    0.000000#0.000000#0.000000
    481.000000
End Object
Start Object014
    97386.265625 -108383.421875 16383.500000
    807123463
    0.000000#0.000000#0.000000
    481.000000
End Object
Start Object015
    98655.640625 -108379.343750 16383.500000
    807123463
    0.000000#0.000000#0.000000
    481.000000
End Object
Start Object016
    100455.773438 -122107.492188 16383.500000
    807123463
    0.000000#0.000000#0.000000
    481.000000
End Object
Start Object017
    101608.578125 -122099.914063 16383.500000
    807123463
    0.000000#0.000000#0.000000
    481.000000
End Object
Start Object018
    101603.585938 -119705.867188 16383.500000
    807123463
    0.000000#0.000000#0.000000
    481.000000
End Object
Start Object019
    100439.882813 -119703.539063 16383.500000
    807123463
    0.000000#0.000000#0.000000
    481.000000
End Object
Start Object020
    93527.710938 -106003.453125 16383.500000
    807123463
    0.000000#0.000000#0.000000
    481.000000
End Object
Start Object021
    94733.726563 -105993.898438 16383.500000
    807123463
    0.000000#0.000000#0.000000
    481.000000
End Object
Start Object022
    96242.382813 -106005.023438 16383.500000
    807123463
    0.000000#0.000000#0.000000
    481.000000
End Object
Start Object023
    97395.953125 -105997.500000 16383.500000
    807123463
    0.000000#0.000000#0.000000
    481.000000
End Object
Start Object024
    98673.382813 -105999.312500 16383.500000
    807123463
    0.000000#0.000000#0.000000
    481.000000
End Object
Start Object025
    99828.367188 -105997.054688 16383.500000
    807123463
    0.000000#0.000000#0.000000
    481.000000
End Object
Start Object026
    101064.039063 -105998.312500 16383.500000
    807123463
    0.000000#0.000000#0.000000
    481.000000
End Object
Start Object027
    101054.664063 -108380.828125 16383.500000
    807123463
    0.000000#0.000000#0.000000
    481.000000
End Object
Start Object028
    99826.296875 -108384.093750 16383.500000
    807123463
    0.000000#0.000000#0.000000
    481.000000
End Object
Start Object029
    92368.382813 -106010.476563 16383.500000
    807123463
    0.000000#0.000000#0.000000
    481.000000
End Object
Start Object030
    91093.062500 -106007.937500 16383.500000
    807123463
    0.000000#0.000000#0.000000
    481.000000
End Object
Start Object031
    89936.273438 -106008.992188 16383.500000
    807123463
    0.000000#0.000000#0.000000
    481.000000
End Object
Start Object032
    88434.539063 -106000.953125 16383.500000
    807123463
    0.000000#0.000000#0.000000
    481.000000
End Object
Start Object033
    87402.929688 -105998.453125 16383.500000
    807123463
    0.000000#0.000000#0.000000
    481.000000
End Object
Start Object034
    85911.281250 -105998.757813 16383.500000
    807123463
    0.000000#0.000000#0.000000
    481.000000
End Object
Start Object035
    84741.734375 -106001.312500 16383.500000
    807123463
    0.000000#0.000000#0.000000
    481.000000
End Object
Start Object036
    83479.992188 -105986.421875 16383.500000
    807123463
    0.000000#0.000000#0.000000
    481.000000
End Object
Start Object037
    82314.007813 -105989.007813 16383.500000
    807123463
    0.000000#0.000000#0.000000
    481.000000
End Object
Start Object038
    77169.929688 -108393.257813 16383.500000
    807123463
    0.000000#0.000000#0.000000
    481.000000
End Object
Start Object039
    78442.281250 -108380.531250 16383.500000
    807123463
    0.000000#0.000000#0.000000
    481.000000
End Object
Start Object040
    78449.070313 -105999.578125 16383.500000
    807123463
    0.000000#0.000000#0.000000
    481.000000
End Object
Start Object041
    77176.007813 -106005.781250 16383.500000
    807123463
    0.000000#0.000000#0.000000
    481.000000
End Object
Start Object042
    77657.984375 -122127.007813 16383.500000
    807123463
    0.000000#0.000000#0.000000
    481.000000
End Object
Start Object043
    79146.046875 -122134.445313 16383.500000
    807123463
    0.000000#0.000000#0.000000
    481.000000
End Object
Start Object044
    80315.406250 -122143.031250 16383.500000
    807123463
    0.000000#0.000000#0.000000
    481.000000
End Object
Start Object045
    81579.359375 -122142.398438 16383.500000
    807123463
    0.000000#0.000000#0.000000
    481.000000
End Object
Start Object046
    82730.648438 -122137.921875 16383.500000
    807123463
    0.000000#0.000000#0.000000
    481.000000
End Object
Start Object047
    83963.914063 -122115.632813 16383.500000
    807123463
    0.000000#0.000000#0.000000
    481.000000
End Object
Start Object048
    85460.648438 -122134.179688 16383.500000
    807123463
    0.000000#0.000000#0.000000
    481.000000
End Object
Start Object049
    86621.187500 -122112.109375 16383.500000
    807123463
    0.000000#0.000000#0.000000
    481.000000
End Object
Start Object050
    87893.140625 -122123.234375 16383.500000
    807123463
    0.000000#0.000000#0.000000
    481.000000
End Object
Start Object051
    89045.328125 -122117.109375 16383.500000
    807123463
    0.000000#0.000000#0.000000
    481.000000
End Object
Start Object052
    90224.476563 -122116.476563 16383.500000
    807123463
    0.000000#0.000000#0.000000
    481.000000
End Object
Start Object053
    91728.046875 -122126.953125 16383.500000
    807123463
    0.000000#0.000000#0.000000
    481.000000
End Object
Start Object054
    92890.101563 -122120.390625 16383.500000
    807123463
    0.000000#0.000000#0.000000
    481.000000
End Object
Start Object055
    94163.625000 -122130.335938 16383.500000
    807123463
    0.000000#0.000000#0.000000
    481.000000
End Object
Start Object056
    95318.273438 -122128.085938 16383.500000
    807123463
    0.000000#0.000000#0.000000
    481.000000
End Object
Start Object057
    96514.539063 -122102.656250 16383.500000
    807123463
    0.000000#0.000000#0.000000
    481.000000
End Object
Start Object058
    98023.593750 -122101.929688 16383.500000
    807123463
    0.000000#0.000000#0.000000
    481.000000
End Object
Start Object059
    99173.031250 -122109.257813 16383.500000
    807123463
    0.000000#0.000000#0.000000
    481.000000
End Object
Start Object060
    99181.367188 -119710.656250 16383.500000
    807123463
    0.000000#0.000000#0.000000
    481.000000
End Object
Start Object061
    98028.718750 -119711.718750 16383.500000
    807123463
    0.000000#0.000000#0.000000
    481.000000
End Object
Start Object062
    96524.625000 -119705.046875 16383.500000
    807123463
    0.000000#0.000000#0.000000
    481.000000
End Object
Start Object063
    95322.296875 -119722.507813 16383.500000
    807123463
    0.000000#0.000000#0.000000
    481.000000
End Object
Start Object064
    94163.078125 -119728.203125 16383.500000
    807123463
    0.000000#0.000000#0.000000
    481.000000
End Object
Start Object065
    92904.390625 -119722.195313 16383.500000
    807123463
    0.000000#0.000000#0.000000
    481.000000
End Object
Start Object066
    91742.445313 -119735.984375 16383.500000
    807123463
    0.000000#0.000000#0.000000
    481.000000
End Object
Start Object067
    90235.289063 -119726.984375 16383.500000
    807123463
    0.000000#0.000000#0.000000
    481.000000
End Object
Start Object068
    89063.546875 -119727.117188 16383.500000
    807123463
    0.000000#0.000000#0.000000
    481.000000
End Object
Start Object069
    87893.140625 -119731.898438 16383.500000
    807123463
    0.000000#0.000000#0.000000
    481.000000
End Object
Start Object070
    79604.585938 -105998.921875 16383.500000
    807123463
    0.000000#0.000000#0.000000
    481.000000
End Object
Start Object071
    81111.531250 -106000.640625 16383.500000
    807123463
    0.000000#0.000000#0.000000
    481.000000
End Object
Start Object072
    77635.859375 -119740.335938 16383.500000
    807123463
    0.000000#0.000000#0.000000
    481.000000
End Object
Start Object073
    79141.109375 -119737.328125 16383.500000
    807123463
    0.000000#0.000000#0.000000
    481.000000
End Object
Start Object074
    80296.984375 -119745.585938 16383.500000
    807123463
    0.000000#0.000000#0.000000
    481.000000
End Object
Start Object075
    81573.953125 -119736.554688 16383.500000
    807123463
    0.000000#0.000000#0.000000
    481.000000
End Object
Start Object076
    82740.976563 -119731.617188 16383.500000
    807123463
    0.000000#0.000000#0.000000
    481.000000
End Object
Start Object077
    83956.078125 -119733.375000 16383.500000
    807123463
    0.000000#0.000000#0.000000
    481.000000
End Object
Start Object078
    85464.695313 -119734.929688 16383.500000
    807123463
    0.000000#0.000000#0.000000
    481.000000
End Object
Start Object079
    86624.437500 -119734.562500 16383.500000
    807123463
    0.000000#0.000000#0.000000
    481.000000
End Object
Start Object080
    99210.000000 -120910.000000 16383.500000
    3453634549
    0.000000#0.000000#270.000000
    0.000000
End Object
Start Object081
    92920.000000 -120930.000000 16383.500000
    3453634549
    0.000000#0.000000#270.000000
    0.000000
End Object
Start Object082
    86650.000000 -120930.000000 16383.500000
    3453634549
    0.000000#0.000000#270.000000
    0.000000
End Object
Start Object083
    80330.000000 -120940.000000 16383.500000
    3453634549
    0.000000#0.000000#270.000000
    0.000000
End Object
Start Object084
    78420.000000 -107190.000000 16383.500000
    3453634549
    0.000000#0.000000#90.000000
    0.000000
End Object
Start Object085
    84720.000000 -107180.000000 16383.500000
    3453634549
    0.000000#0.000000#90.000000
    0.000000
End Object
Start Object086
    91120.000000 -107200.000000 16383.500000
    3453634549
    0.000000#0.000000#270.000000
    0.000000
End Object
Start Object087
    97420.000000 -107190.000000 16383.500000
    3453634549
    0.000000#0.000000#270.000000
    0.000000
End Object

ObjectCount 88
