AreaDataFile

Start Object000
    110727.250000 -122079.046875 16383.500000
    807123463
    0.000000#0.000000#0.000000
    481.000000
End Object
Start Object001
    109203.734375 -122081.015625 16383.500000
    807123463
    0.000000#0.000000#0.000000
    481.000000
End Object
Start Object002
    107910.539063 -122079.210938 16383.500000
    807123463
    0.000000#0.000000#0.000000
    481.000000
End Object
Start Object003
    106749.492188 -122085.531250 16383.500000
    807123463
    0.000000#0.000000#0.000000
    481.000000
End Object
Start Object004
    105477.843750 -122093.656250 16383.500000
    807123463
    0.000000#0.000000#0.000000
    481.000000
End Object
Start Object005
    111390.351563 -119691.492188 16383.500000
    807123463
    0.000000#0.000000#0.000000
    481.000000
End Object
Start Object006
    110720.867188 -119706.890625 16383.500000
    807123463
    0.000000#0.000000#0.000000
    481.000000
End Object
Start Object007
    109209.703125 -119696.046875 16383.500000
    807123463
    0.000000#0.000000#0.000000
    481.000000
End Object
Start Object008
    107912.921875 -119696.992188 16383.500000
    807123463
    0.000000#0.000000#0.000000
    481.000000
End Object
Start Object009
    106752.140625 -119695.429688 16383.500000
    807123463
    0.000000#0.000000#0.000000
    481.000000
End Object
Start Object010
    105479.984375 -119703.406250 16383.500000
    807123463
    0.000000#0.000000#0.000000
    481.000000
End Object
Start Object011
    104322.851563 -119691.085938 16383.500000
    807123463
    0.000000#0.000000#0.000000
    481.000000
End Object
Start Object012
    104321.226563 -122092.367188 16383.500000
    807123463
    0.000000#0.000000#0.000000
    481.000000
End Object
Start Object013
    102807.031250 -122101.781250 16383.500000
    807123463
    0.000000#0.000000#0.000000
    481.000000
End Object
Start Object014
    102565.742188 -108380.070313 16383.500000
    807123463
    0.000000#0.000000#0.000000
    481.000000
End Object
Start Object015
    103721.843750 -108376.375000 16383.500000
    807123463
    0.000000#0.000000#0.000000
    481.000000
End Object
Start Object016
    104991.226563 -108387.882813 16383.500000
    807123463
    0.000000#0.000000#0.000000
    481.000000
End Object
Start Object017
    106148.117188 -108384.906250 16383.500000
    807123463
    0.000000#0.000000#0.000000
    481.000000
End Object
Start Object018
    107379.812500 -108394.609375 16383.500000
    807123463
    0.000000#0.000000#0.000000
    481.000000
End Object
Start Object019
    108881.875000 -108388.429688 16383.500000
    807123463
    0.000000#0.000000#0.000000
    481.000000
End Object
Start Object020
    110042.945313 -108391.492188 16383.500000
    807123463
    0.000000#0.000000#0.000000
    481.000000
End Object
Start Object021
    114881.171875 -126920.664063 16383.500000
    807123463
    0.000000#0.000000#270.000000
    339.000000
End Object
Start Object022
    119075.382813 -126912.664063 16383.500000
    807123463
    0.000000#0.000000#270.000000
    339.000000
End Object
Start Object023
    119125.390625 -124351.367188 16383.500000
    807123463
    0.000000#0.000000#270.000000
    480.000000
End Object
Start Object024
    120514.406250 -122883.218750 16383.500000
    807123463
    0.000000#0.000000#270.000000
    480.000000
End Object
Start Object025
    120513.296875 -118666.023438 16383.500000
    807123463
    0.000000#0.000000#270.000000
    480.000000
End Object
Start Object026
    119021.250000 -117217.445313 16383.500000
    807123463
    0.000000#0.000000#270.000000
    480.000000
End Object
Start Object027
    114831.289063 -117215.382813 16383.500000
    807123463
    0.000000#0.000000#270.000000
    480.000000
End Object
Start Object028
    113390.375000 -118667.835938 16383.500000
    807123463
    0.000000#0.000000#270.000000
    480.000000
End Object
Start Object029
    113385.101563 -122876.343750 16383.500000
    807123463
    0.000000#0.000000#270.000000
    480.000000
End Object
Start Object030
    114829.210938 -124343.054688 16383.500000
    807123463
    0.000000#0.000000#270.000000
    480.000000
End Object
Start Object031
    127166.000000 -118480.937500 16383.500000
    807123463
    0.000000#0.000000#270.000000
    339.000000
End Object
Start Object032
    127165.281250 -122679.320313 16383.500000
    807123463
    0.000000#0.000000#270.000000
    339.000000
End Object
Start Object033
    127162.203125 -127045.468750 16383.500000
    807123463
    0.000000#0.000000#270.000000
    339.000000
End Object
Start Object034
    125070.671875 -127045.210938 16383.500000
    807123463
    0.000000#0.000000#270.000000
    339.000000
End Object
Start Object035
    127086.750000 -109268.718750 16383.500000
    807123463
    0.000000#0.000000#270.000000
    339.000000
End Object
Start Object036
    127085.984375 -105078.445313 16383.500000
    807123463
    0.000000#0.000000#270.000000
    339.000000
End Object
Start Object037
    104998.476563 -105996.960938 16383.500000
    807123463
    0.000000#0.000000#0.000000
    481.000000
End Object
Start Object038
    103726.375000 -106002.835938 16383.500000
    807123463
    0.000000#0.000000#0.000000
    481.000000
End Object
Start Object039
    102572.007813 -105994.968750 16383.500000
    807123463
    0.000000#0.000000#0.000000
    481.000000
End Object
Start Object040
    112892.992188 -119690.218750 16383.500000
    807123463
    0.000000#0.000000#0.000000
    481.000000
End Object
Start Object041
    112883.609375 -122089.390625 16383.500000
    807123463
    0.000000#0.000000#0.000000
    481.000000
End Object
Start Object042
    111386.437500 -122083.562500 16383.500000
    807123463
    0.000000#0.000000#0.000000
    481.000000
End Object
Start Object043
    118186.257813 -124929.445313 16383.500000
    807123463
    0.000000#0.000000#0.000000
    481.000000
End Object
Start Object044
    115796.570313 -124923.859375 16383.500000
    807123463
    0.000000#0.000000#0.000000
    481.000000
End Object
Start Object045
    115809.765625 -126142.429688 16383.500000
    807123463
    0.000000#0.000000#0.000000
    481.000000
End Object
Start Object046
    118206.101563 -126145.226563 16383.500000
    807123463
    0.000000#0.000000#0.000000
    481.000000
End Object
Start Object047
    102815.015625 -119697.710938 16383.500000
    807123463
    0.000000#0.000000#0.000000
    481.000000
End Object
Start Object048
    115709.859375 -111667.476563 16383.500000
    807123463
    0.000000#0.000000#0.000000
    481.000000
End Object
Start Object049
    115701.648438 -112820.179688 16383.500000
    807123463
    0.000000#0.000000#0.000000
    481.000000
End Object
Start Object050
    115709.117188 -114102.328125 16383.500000
    807123463
    0.000000#0.000000#0.000000
    481.000000
End Object
Start Object051
    115698.070313 -115249.742188 16383.500000
    807123463
    0.000000#0.000000#0.000000
    481.000000
End Object
Start Object052
    115700.664063 -116754.343750 16383.500000
    807123463
    0.000000#0.000000#0.000000
    481.000000
End Object
Start Object053
    118093.421875 -116758.015625 16383.500000
    807123463
    0.000000#0.000000#0.000000
    481.000000
End Object
Start Object054
    121065.351563 -108369.164063 16383.500000
    807123463
    0.000000#0.000000#0.000000
    481.000000
End Object
Start Object055
    122575.328125 -108367.468750 16383.500000
    807123463
    0.000000#0.000000#0.000000
    481.000000
End Object
Start Object056
    123738.554688 -108364.320313 16383.500000
    807123463
    0.000000#0.000000#0.000000
    481.000000
End Object
Start Object057
    125009.859375 -108367.585938 16383.500000
    807123463
    0.000000#0.000000#0.000000
    481.000000
End Object
Start Object058
    126166.343750 -108368.718750 16383.500000
    807123463
    0.000000#0.000000#0.000000
    481.000000
End Object
Start Object059
    126163.539063 -105975.820313 16383.500000
    807123463
    0.000000#0.000000#0.000000
    481.000000
End Object
Start Object060
    125008.718750 -105979.687500 16383.500000
    807123463
    0.000000#0.000000#0.000000
    481.000000
End Object
Start Object061
    123729.984375 -105978.382813 16383.500000
    807123463
    0.000000#0.000000#0.000000
    481.000000
End Object
Start Object062
    122579.023438 -105981.742188 16383.500000
    807123463
    0.000000#0.000000#0.000000
    481.000000
End Object
Start Object063
    121065.171875 -105974.007813 16383.500000
    807123463
    0.000000#0.000000#0.000000
    481.000000
End Object
Start Object064
    111316.578125 -108394.937500 16383.500000
    807123463
    0.000000#0.000000#0.000000
    481.000000
End Object
Start Object065
    112475.125000 -108387.773438 16383.500000
    807123463
    0.000000#0.000000#0.000000
    481.000000
End Object
Start Object066
    112481.078125 -106010.242188 16383.500000
    807123463
    0.000000#0.000000#0.000000
    481.000000
End Object
Start Object067
    111320.257813 -106008.906250 16383.500000
    807123463
    0.000000#0.000000#0.000000
    481.000000
End Object
Start Object068
    110049.937500 -106000.562500 16383.500000
    807123463
    0.000000#0.000000#0.000000
    481.000000
End Object
Start Object069
    108897.078125 -106006.140625 16383.500000
    807123463
    0.000000#0.000000#0.000000
    481.000000
End Object
Start Object070
    107386.273438 -106002.210938 16383.500000
    807123463
    0.000000#0.000000#0.000000
    481.000000
End Object
Start Object071
    106159.898438 -105994.796875 16383.500000
    807123463
    0.000000#0.000000#0.000000
    481.000000
End Object
Start Object072
    118090.601563 -111659.453125 16383.500000
    807123463
    0.000000#0.000000#0.000000
    481.000000
End Object
Start Object073
    118083.093750 -112823.757813 16383.500000
    807123463
    0.000000#0.000000#0.000000
    481.000000
End Object
Start Object074
    118092.812500 -114101.906250 16383.500000
    807123463
    0.000000#0.000000#0.000000
    481.000000
End Object
Start Object075
    118075.125000 -115251.546875 16383.500000
    807123463
    0.000000#0.000000#0.000000
    481.000000
End Object
Start Object076
    126507.984375 -121913.890625 16383.500000
    807123463
    0.000000#0.000000#0.000000
    481.000000
End Object
Start Object077
    125007.687500 -121908.367188 16383.500000
    807123463
    0.000000#0.000000#0.000000
    481.000000
End Object
Start Object078
    123843.804688 -121914.843750 16383.500000
    807123463
    0.000000#0.000000#0.000000
    481.000000
End Object
Start Object079
    122569.898438 -121909.914063 16383.500000
    807123463
    0.000000#0.000000#0.000000
    481.000000
End Object
Start Object080
    126508.437500 -119531.062500 16383.500000
    807123463
    0.000000#0.000000#0.000000
    481.000000
End Object
Start Object081
    125004.234375 -119523.929688 16383.500000
    807123463
    0.000000#0.000000#0.000000
    481.000000
End Object
Start Object082
    123851.273438 -119536.781250 16383.500000
    807123463
    0.000000#0.000000#0.000000
    481.000000
End Object
Start Object083
    122578.437500 -119527.125000 16383.500000
    807123463
    0.000000#0.000000#0.000000
    481.000000
End Object
Start Object084
    121413.523438 -119524.968750 16383.500000
    807123463
    0.000000#0.000000#0.000000
    481.000000
End Object
Start Object085
    121411.515625 -121916.687500 16383.500000
    807123463
    0.000000#0.000000#0.000000
    481.000000
End Object
Start Object086
    116990.000000 -125030.000000 16383.500000
    2847936845
    0.000000#0.000000#180.000000
    0.000000
End Object
Start Object087
    117000.000000 -126240.000000 16383.500000
    2847936845
    0.000000#0.000000#180.000000
    0.000000
End Object
Start Object088
    109940.000000 -120890.000000 16383.500000
    3322686878
    0.000000#0.000000#90.000000
    0.000000
End Object
Start Object089
    112110.000000 -120880.000000 16383.500000
    3322686878
    0.000000#0.000000#90.000000
    0.000000
End Object
Start Object090
    123820.000000 -120720.000000 16383.500000
    3453634549
    0.000000#0.000000#90.000000
    0.000000
End Object
Start Object091
    116900.000000 -114070.000000 16383.500000
    3453634549
    0.000000#0.000000#0.000000
    0.000000
End Object
Start Object092
    105510.000000 -120900.000000 16383.500000
    3453634549
    0.000000#0.000000#270.000000
    0.000000
End Object
Start Object093
    103750.000000 -107190.000000 16383.500000
    3453634549
    0.000000#0.000000#270.000000
    0.000000
End Object
Start Object094
    110070.000000 -107200.000000 16383.500000
    3453634549
    0.000000#0.000000#270.000000
    0.000000
End Object
Start Object095
    123760.000000 -107180.000000 16383.500000
    3453634549
    0.000000#0.000000#270.000000
    0.000000
End Object
Start Object096
    116950.000000 -120780.000000 16383.500000
    3740805795
    0.000000#0.000000#0.000000
    0.000000
End Object
Start Object097
    113545.945313 -106024.703125 16383.500000
    3982077190
    0.000000#0.000000#270.000000
    1519.000000
End Object
Start Object098
    113527.835938 -108413.593750 16383.500000
    3982077190
    0.000000#0.000000#270.000000
    1519.000000
End Object
Start Object099
    115672.710938 -110557.164063 16383.500000
    3982077190
    0.000000#0.000000#270.000000
    1519.000000
End Object
Start Object100
    118073.570313 -110561.968750 16383.500000
    3982077190
    0.000000#0.000000#270.000000
    1519.000000
End Object
Start Object101
    120216.890625 -108407.617188 16383.500000
    3982077190
    0.000000#0.000000#270.000000
    1519.000000
End Object
Start Object102
    120216.867188 -106024.562500 16383.500000
    3982077190
    0.000000#0.000000#270.000000
    1519.000000
End Object
Start Object103
    118073.945313 -103877.601563 16383.500000
    3982077190
    0.000000#0.000000#270.000000
    1519.000000
End Object
Start Object104
    115673.882813 -103863.156250 16383.500000
    3982077190
    0.000000#0.000000#270.000000
    1519.000000
End Object
Start Object105
    118163.187500 -117410.507813 16383.500000
    3982077190
    0.000000#0.000000#270.000000
    1651.000000
End Object
Start Object106
    115756.281250 -117404.093750 16383.500000
    3982077190
    0.000000#0.000000#270.000000
    1651.000000
End Object
Start Object107
    113561.054688 -119572.093750 16383.500000
    3982077190
    0.000000#0.000000#270.000000
    1651.000000
End Object
Start Object108
    113551.914063 -121990.742188 16383.500000
    3982077190
    0.000000#0.000000#270.000000
    1651.000000
End Object
Start Object109
    115734.781250 -124158.984375 16383.500000
    3982077190
    0.000000#0.000000#270.000000
    1651.000000
End Object
Start Object110
    118146.476563 -124155.625000 16383.500000
    3982077190
    0.000000#0.000000#270.000000
    1651.000000
End Object
Start Object111
    120325.156250 -121990.578125 16383.500000
    3982077190
    0.000000#0.000000#270.000000
    1651.000000
End Object
Start Object112
    120331.523438 -119567.429688 16383.500000
    3982077190
    0.000000#0.000000#270.000000
    1651.000000
End Object
Start Object113
    127365.601563 -121795.257813 16383.500000
    3982077190
    0.000000#0.000000#270.000000
    1520.000000
End Object
Start Object114
    127356.914063 -119393.703125 16383.500000
    3982077190
    0.000000#0.000000#270.000000
    1520.000000
End Object
Start Object115
    125960.000000 -127233.914063 16383.500000
    3982077190
    0.000000#0.000000#270.000000
    1520.000000
End Object
Start Object116
    115770.382813 -127101.179688 16383.500000
    3982077190
    0.000000#0.000000#270.000000
    1520.000000
End Object
Start Object117
    118172.242188 -127131.281250 16383.500000
    3982077190
    0.000000#0.000000#270.000000
    1520.000000
End Object
Start Object118
    127270.414063 -105982.296875 16383.500000
    3982077190
    0.000000#0.000000#270.000000
    1520.000000
End Object
Start Object119
    127275.070313 -108376.562500 16383.500000
    3982077190
    0.000000#0.000000#270.000000
    1520.000000
End Object
Start Object120
    116880.000000 -107210.000000 16383.500000
    4180790606
    0.000000#0.000000#0.000000
    0.000000
End Object

ObjectCount 121
