AreaDataFile

Start Object000
    112208.734375 -70324.890625 16191.419922
    59728437
    0.000000#0.000000#270.000000
    0.000000
End Object
Start Object001
    103512.710938 -56444.933594 15678.490234
    59728437
    0.000000#0.000000#315.000000
    0.000000
End Object
Start Object002
    121785.085938 -74005.929688 16751.500000
    486960621
    0.000000#0.000000#0.000000
    -35.000000
End Object
Start Object003
    121863.414063 -53726.210938 15230.764648
    1107711305
    0.000000#0.000000#0.000000
    -35.000000
End Object
Start Object004
    120860.390625 -54436.406250 15525.950195
    1289994135
    0.000000#0.000000#0.000000
    -35.000000
End Object
Start Object005
    123814.656250 -66305.906250 16792.949219
    1289994135
    0.000000#0.000000#0.000000
    -35.000000
End Object
Start Object006
    121766.968750 -67458.281250 16794.130859
    1353164984
    0.000000#0.000000#0.000000
    -35.000000
End Object
Start Object007
    120780.406250 -74160.835938 16752.000000
    1353164984
    0.000000#0.000000#0.000000
    -35.000000
End Object
Start Object008
    118048.617188 -51739.125000 15553.357422
    1627171592
    0.000000#0.000000#285.000000
    10.000000
End Object
Start Object009
    121357.062500 -54876.828125 15563.817383
    2233363945
    0.000000#0.000000#285.000000
    -49.554688
End Object
Start Object010
    116608.187500 -52587.000000 15664.000000
    2376089798
    0.000000#0.000000#0.000000
    -35.000000
End Object
Start Object011
    121170.281250 -72836.445313 16751.500000
    2376089798
    0.000000#0.000000#0.000000
    -35.000000
End Object
Start Object012
    116758.640625 -52432.390625 15664.000000
    2534098066
    0.000000#0.000000#285.000000
    10.000000
End Object
Start Object013
    120460.085938 -74655.476563 16760.974609
    2534098066
    0.000000#0.000000#285.000000
    -40.000000
End Object
Start Object014
    121181.242188 -74124.015625 16752.000000
    2763472928
    0.000000#0.000000#15.000000
    -40.000000
End Object
Start Object015
    123266.710938 -66772.421875 16792.500000
    3134961381
    0.000000#0.000000#90.000000
    0.593750
End Object
Start Object016
    121173.351563 -75761.507813 16761.757813
    3193282972
    0.000000#0.000000#0.000000
    -35.000000
End Object
Start Object017
    121974.765625 -55133.847656 15573.552734
    3193282972
    0.000000#0.000000#0.000000
    -35.000000
End Object
Start Object018
    124812.062500 -67519.523438 16710.568359
    3193282972
    0.000000#0.000000#0.000000
    -35.000000
End Object
Start Object019
    124732.257813 -65937.882813 16792.000000
    3689520799
    0.000000#0.000000#0.000000
    -35.000000
End Object
Start Object020
    120486.265625 -55638.937500 15664.000000
    3689520799
    0.000000#0.000000#0.000000
    -35.000000
End Object

ObjectCount 21
